PHYS3114/lab1/data/ALL0011/F0011CH1.CSV

Record Length,2.500000e+03,,  -0.000011600000,   5.20000,
Sample Interval,4.000000e-08,,  -0.000011560000,   5.12000,
Trigger Point,2.900000000000e+02,,  -0.000011520000,   5.12000,
,,,  -0.000011480000,   5.20000,
,,,  -0.000011440000,   5.20000,
,,,  -0.000011400000,   5.20000,
Source,CH1,,  -0.000011360000,   5.12000,
Vertical Units,V,,  -0.000011320000,   5.12000,
Vertical Scale,2.000000e+00,,  -0.000011280000,   5.12000,
Vertical Offset,0.000000e+00,,  -0.000011240000,   5.20000,
Horizontal Units,s,,  -0.000011200000,   5.20000,
Horizontal Scale,1.000000e-05,,  -0.000011160000,   5.20000,
Pt Fmt,Y,,  -0.000011120000,   5.12000,
Yzero,0.000000e+00,,  -0.000011080000,   5.12000,
Probe Atten,1.000000e+00,,  -0.000011040000,   5.12000,
Model Number,TBS1072B-EDU,,  -0.000011000000,   5.20000,
Serial Number,C013497,,  -0.000010960000,   5.20000,
Firmware Version,FV:v4.0,,  -0.000010920000,   5.28000,
,,,-00.000010880000,   5.20000,
,,,-00.000010840000,   5.20000,
,,,-00.000010800000,   5.20000,
,,,-00.000010760000,   5.12000,
,,,-00.000010720000,   5.28000,
,,,-00.000010680000,   5.20000,
,,,-00.000010640000,   5.12000,
,,,-00.000010600000,   5.20000,
,,,-00.000010560000,   5.12000,
,,,-00.000010520000,   5.20000,
,,,-00.000010480000,   5.12000,
,,,-00.000010440000,   5.12000,
,,,-00.000010400000,   5.12000,
,,,-00.000010360000,   5.12000,
,,,-00.000010320000,   5.12000,
,,,-00.000010280000,   5.12000,
,,,-00.000010240000,   5.12000,
,,,-00.000010200000,   5.20000,
,,,-00.000010160000,   5.20000,
,,,-00.000010120000,   5.20000,
,,,-00.000010080000,   5.20000,
,,,-00.000010040000,   5.20000,
,,,-00.000010000000,   5.20000,
,,,-00.000009960000,   5.20000,
,,,-00.000009920000,   5.12000,
,,,-00.000009880000,   5.12000,
,,,-00.000009840000,   5.20000,
,,,-00.000009800000,   5.20000,
,,,-00.000009760000,   5.20000,
,,,-00.000009720000,   5.20000,
,,,-00.000009680000,   5.12000,
,,,-00.000009640000,   5.12000,
,,,-00.000009600000,   5.20000,
,,,-00.000009560000,   5.20000,
,,,-00.000009520000,   5.20000,
,,,-00.000009480000,   5.20000,
,,,-00.000009440000,   5.12000,
,,,-00.000009400000,   5.12000,
,,,-00.000009360000,   5.20000,
,,,-00.000009320000,   5.20000,
,,,-00.000009280000,   5.20000,
,,,-00.000009240000,   5.12000,
,,,-00.000009200000,   5.12000,
,,,-00.000009160000,   5.12000,
,,,-00.000009120000,   5.20000,
,,,-00.000009080000,   5.28000,
,,,-00.000009040000,   5.20000,
,,,-00.000009000000,   5.20000,
,,,-00.000008960000,   5.20000,
,,,-00.000008920000,   5.20000,
,,,-00.000008880000,   5.20000,
,,,-00.000008840000,   5.12000,
,,,-00.000008800000,   5.12000,
,,,-00.000008760000,   5.20000,
,,,-00.000008720000,   5.12000,
,,,-00.000008680000,   5.12000,
,,,-00.000008640000,   5.20000,
,,,-00.000008600000,   5.20000,
,,,-00.000008560000,   5.12000,
,,,-00.000008520000,   5.20000,
,,,-00.000008480000,   5.28000,
,,,-00.000008440000,   5.20000,
,,,-00.000008400000,   5.20000,
,,,-00.000008360000,   5.04000,
,,,-00.000008320000,   5.20000,
,,,-00.000008280000,   5.12000,
,,,-00.000008240000,   5.12000,
,,,-00.000008200000,   5.12000,
,,,-00.000008160000,   5.20000,
,,,-00.000008120000,   5.12000,
,,,-00.000008080000,   5.20000,
,,,-00.000008040000,   5.20000,
,,,-00.000008000000,   5.12000,
,,,-00.000007960000,   5.20000,
,,,-00.000007920000,   5.12000,
,,,-00.000007880000,   5.20000,
,,,-00.000007840000,   5.12000,
,,,-00.000007800000,   5.20000,
,,,-00.000007760000,   5.12000,
,,,-00.000007720000,   5.12000,
,,,-00.000007680000,   5.20000,
,,,-00.000007640000,   5.20000,
,,,-00.000007600000,   5.12000,
,,,-00.000007560000,   5.20000,
,,,-00.000007520000,   5.12000,
,,,-00.000007480000,   5.20000,
,,,-00.000007440000,   5.12000,
,,,-00.000007400000,   5.12000,
,,,-00.000007360000,   5.20000,
,,,-00.000007320000,   5.20000,
,,,-00.000007280000,   5.20000,
,,,-00.000007240000,   5.20000,
,,,-00.000007200000,   5.20000,
,,,-00.000007160000,   5.12000,
,,,-00.000007120000,   5.20000,
,,,-00.000007080000,   5.12000,
,,,-00.000007040000,   5.20000,
,,,-00.000007000000,   5.20000,
,,,-00.000006960000,   5.20000,
,,,-00.000006920000,   5.20000,
,,,-00.000006880000,   5.20000,
,,,-00.000006840000,   5.12000,
,,,-00.000006800000,   5.12000,
,,,-00.000006760000,   5.20000,
,,,-00.000006720000,   5.20000,
,,,-00.000006680000,   5.28000,
,,,-00.000006640000,   5.20000,
,,,-00.000006600000,   5.12000,
,,,-00.000006560000,   5.12000,
,,,-00.000006520000,   5.20000,
,,,-00.000006480000,   5.20000,
,,,-00.000006440000,   5.12000,
,,,-00.000006400000,   5.20000,
,,,-00.000006360000,   5.12000,
,,,-00.000006320000,   5.12000,
,,,-00.000006280000,   5.12000,
,,,-00.000006240000,   5.20000,
,,,-00.000006200000,   5.12000,
,,,-00.000006160000,   5.12000,
,,,-00.000006120000,   5.12000,
,,,-00.000006080000,   5.12000,
,,,-00.000006040000,   5.20000,
,,,-00.000006000000,   5.12000,
,,,-00.000005960000,   5.12000,
,,,-00.000005920000,   5.20000,
,,,-00.000005880000,   5.28000,
,,,-00.000005840000,   5.04000,
,,,-00.000005800000,   5.20000,
,,,-00.000005760000,   5.12000,
,,,-00.000005720000,   5.12000,
,,,-00.000005680000,   5.20000,
,,,-00.000005640000,   5.12000,
,,,-00.000005600000,   5.28000,
,,,-00.000005560000,   5.04000,
,,,-00.000005520000,   5.20000,
,,,-00.000005480000,   5.12000,
,,,-00.000005440000,   5.20000,
,,,-00.000005400000,   5.12000,
,,,-00.000005360000,   5.20000,
,,,-00.000005320000,   5.20000,
,,,-00.000005280000,   5.12000,
,,,-00.000005240000,   5.12000,
,,,-00.000005200000,   5.12000,
,,,-00.000005160000,   5.12000,
,,,-00.000005120000,   5.20000,
,,,-00.000005080000,   5.12000,
,,,-00.000005040000,   5.20000,
,,,-00.000005000000,   5.12000,
,,,-00.000004960000,   5.12000,
,,,-00.000004920000,   5.28000,
,,,-00.000004880000,   5.20000,
,,,-00.000004840000,   5.20000,
,,,-00.000004800000,   5.20000,
,,,-00.000004760000,   5.20000,
,,,-00.000004720000,   5.20000,
,,,-00.000004680000,   5.20000,
,,,-00.000004640000,   5.20000,
,,,-00.000004600000,   5.12000,
,,,-00.000004560000,   5.20000,
,,,-00.000004520000,   5.12000,
,,,-00.000004480000,   5.20000,
,,,-00.000004440000,   5.04000,
,,,-00.000004400000,   5.20000,
,,,-00.000004360000,   5.20000,
,,,-00.000004320000,   5.20000,
,,,-00.000004280000,   5.12000,
,,,-00.000004240000,   5.12000,
,,,-00.000004200000,   5.12000,
,,,-00.000004160000,   5.20000,
,,,-00.000004120000,   5.20000,
,,,-00.000004080000,   5.20000,
,,,-00.000004040000,   5.12000,
,,,-00.000004000000,   5.20000,
,,,-00.000003960000,   5.12000,
,,,-00.000003920000,   5.20000,
,,,-00.000003880000,   5.20000,
,,,-00.000003840000,   5.20000,
,,,-00.000003800000,   5.20000,
,,,-00.000003760000,   5.12000,
,,,-00.000003720000,   5.04000,
,,,-00.000003680000,   5.20000,
,,,-00.000003640000,   5.20000,
,,,-00.000003600000,   5.12000,
,,,-00.000003560000,   5.20000,
,,,-00.000003520000,   5.20000,
,,,-00.000003480000,   5.20000,
,,,-00.000003440000,   5.12000,
,,,-00.000003400000,   5.12000,
,,,-00.000003360000,   5.20000,
,,,-00.000003320000,   5.20000,
,,,-00.000003280000,   5.12000,
,,,-00.000003240000,   5.20000,
,,,-00.000003200000,   5.12000,
,,,-00.000003160000,   5.20000,
,,,-00.000003120000,   5.20000,
,,,-00.000003080000,   5.12000,
,,,-00.000003040000,   5.12000,
,,,-00.000003000000,   5.20000,
,,,-00.000002960000,   5.12000,
,,,-00.000002920000,   5.28000,
,,,-00.000002880000,   5.28000,
,,,-00.000002840000,   5.20000,
,,,-00.000002800000,   5.28000,
,,,-00.000002760000,   5.12000,
,,,-00.000002720000,   5.28000,
,,,-00.000002680000,   5.28000,
,,,-00.000002640000,   5.20000,
,,,-00.000002600000,   5.20000,
,,,-00.000002560000,   5.20000,
,,,-00.000002520000,   5.12000,
,,,-00.000002480000,   5.20000,
,,,-00.000002440000,   5.12000,
,,,-00.000002400000,   5.12000,
,,,-00.000002360000,   5.20000,
,,,-00.000002320000,   5.20000,
,,,-00.000002280000,   5.20000,
,,,-00.000002240000,   5.12000,
,,,-00.000002200000,   5.20000,
,,,-00.000002160000,   5.20000,
,,,-00.000002120000,   5.12000,
,,,-00.000002080000,   5.20000,
,,,-00.000002040000,   5.20000,
,,,-00.000002000000,   5.04000,
,,,-00.000001960000,   5.12000,
,,,-00.000001920000,   5.12000,
,,,-00.000001880000,   5.12000,
,,,-00.000001840000,   5.12000,
,,,-00.000001800000,   5.12000,
,,,-00.000001760000,   5.12000,
,,,-00.000001720000,   5.20000,
,,,-00.000001680000,   5.20000,
,,,-00.000001640000,   5.12000,
,,,-00.000001600000,   5.04000,
,,,-00.000001560000,   5.04000,
,,,-00.000001520000,   5.12000,
,,,-00.000001480000,   5.12000,
,,,-00.000001440000,   5.20000,
,,,-00.000001400000,   5.20000,
,,,-00.000001360000,   5.12000,
,,,-00.000001320000,   5.04000,
,,,-00.000001280000,   5.12000,
,,,-00.000001240000,   5.12000,
,,,-00.000001200000,   5.20000,
,,,-00.000001160000,   5.28000,
,,,-00.000001120000,   5.12000,
,,,-00.000001080000,   5.12000,
,,,-00.000001040000,   5.12000,
,,,-00.000001000000,   5.12000,
,,,-00.000000960000,   5.20000,
,,,-00.000000920000,   5.12000,
,,,-00.000000880000,   5.20000,
,,,-00.000000840000,   5.28000,
,,,-00.000000800000,   5.12000,
,,,-00.000000760000,   5.20000,
,,,-00.000000720000,   5.20000,
,,,-00.000000680000,   5.28000,
,,,-00.000000640000,   5.20000,
,,,-00.000000600000,   5.12000,
,,,-00.000000560000,   5.12000,
,,,-00.000000520000,   5.20000,
,,,-00.000000480000,   5.12000,
,,,-00.000000440000,   5.20000,
,,,-00.000000400000,   5.12000,
,,,-00.000000360000,   5.04000,
,,,-00.000000320000,   5.20000,
,,,-00.000000280000,   5.20000,
,,,-00.000000240000,   5.12000,
,,,-00.000000200000,   5.12000,
,,,-00.000000160000,   5.12000,
,,,-00.000000120000,   5.12000,
,,,-00.000000080000,   5.20000,
,,,-00.000000040000,   5.04000,
,,,-00.000000000000,   5.12000,
,,,00.000000040000,   5.12000,
,,,00.000000080000,   5.12000,
,,,00.000000120000,   5.12000,
,,,00.000000160000,   5.12000,
,,,00.000000200000,   2.40000,
,,,00.000000240000,  -1.28000,
,,,00.000000280000,  -3.36000,
,,,00.000000320000,  -4.32000,
,,,00.000000360000,  -4.72000,
,,,00.000000400000,  -4.72000,
,,,00.000000440000,  -4.72000,
,,,00.000000480000,  -4.80000,
,,,00.000000520000,  -4.80000,
,,,00.000000560000,  -4.72000,
,,,00.000000600000,  -4.80000,
,,,00.000000640000,  -4.80000,
,,,00.000000680000,  -4.72000,
,,,00.000000720000,  -4.80000,
,,,00.000000760000,  -4.80000,
,,,00.000000800000,  -4.80000,
,,,00.000000840000,  -4.72000,
,,,00.000000880000,  -4.72000,
,,,00.000000920000,  -4.72000,
,,,00.000000960000,  -4.80000,
,,,00.000001000000,  -4.72000,
,,,00.000001040000,  -4.72000,
,,,00.000001080000,  -4.72000,
,,,00.000001120000,  -4.72000,
,,,00.000001160000,  -4.72000,
,,,00.000001200000,  -4.72000,
,,,00.000001240000,  -4.80000,
,,,00.000001280000,  -4.80000,
,,,00.000001320000,  -4.88000,
,,,00.000001360000,  -4.72000,
,,,00.000001400000,  -4.80000,
,,,00.000001440000,  -4.80000,
,,,00.000001480000,  -4.80000,
,,,00.000001520000,  -4.80000,
,,,00.000001560000,  -4.80000,
,,,00.000001600000,  -4.80000,
,,,00.000001640000,  -4.80000,
,,,00.000001680000,  -4.88000,
,,,00.000001720000,  -4.88000,
,,,00.000001760000,  -4.80000,
,,,00.000001800000,  -4.96000,
,,,00.000001840000,  -4.88000,
,,,00.000001880000,  -4.80000,
,,,00.000001920000,  -4.88000,
,,,00.000001960000,  -4.88000,
,,,00.000002000000,  -4.96000,
,,,00.000002040000,  -4.88000,
,,,00.000002080000,  -4.96000,
,,,00.000002120000,  -4.88000,
,,,00.000002160000,  -4.88000,
,,,00.000002200000,  -4.96000,
,,,00.000002240000,  -4.96000,
,,,00.000002280000,  -4.96000,
,,,00.000002320000,  -4.96000,
,,,00.000002360000,  -4.96000,
,,,00.000002400000,  -4.96000,
,,,00.000002440000,  -4.80000,
,,,00.000002480000,  -4.96000,
,,,00.000002520000,  -5.04000,
,,,00.000002560000,  -5.04000,
,,,00.000002600000,  -5.04000,
,,,00.000002640000,  -5.04000,
,,,00.000002680000,  -4.96000,
,,,00.000002720000,  -4.96000,
,,,00.000002760000,  -4.96000,
,,,00.000002800000,  -5.04000,
,,,00.000002840000,  -4.96000,
,,,00.000002880000,  -5.04000,
,,,00.000002920000,  -4.96000,
,,,00.000002960000,  -5.04000,
,,,00.000003000000,  -5.04000,
,,,00.000003040000,  -5.04000,
,,,00.000003080000,  -5.04000,
,,,00.000003120000,  -4.96000,
,,,00.000003160000,  -5.04000,
,,,00.000003200000,  -5.04000,
,,,00.000003240000,  -5.04000,
,,,00.000003280000,  -5.04000,
,,,00.000003320000,  -4.96000,
,,,00.000003360000,  -5.04000,
,,,00.000003400000,  -4.96000,
,,,00.000003440000,  -4.96000,
,,,00.000003480000,  -5.04000,
,,,00.000003520000,  -5.04000,
,,,00.000003560000,  -4.96000,
,,,00.000003600000,  -4.96000,
,,,00.000003640000,  -5.04000,
,,,00.000003680000,  -5.04000,
,,,00.000003720000,  -5.04000,
,,,00.000003760000,  -5.04000,
,,,00.000003800000,  -5.04000,
,,,00.000003840000,  -5.12000,
,,,00.000003880000,  -4.96000,
,,,00.000003920000,  -4.96000,
,,,00.000003960000,  -4.96000,
,,,00.000004000000,  -5.04000,
,,,00.000004040000,  -4.96000,
,,,00.000004080000,  -4.96000,
,,,00.000004120000,  -4.96000,
,,,00.000004160000,  -5.04000,
,,,00.000004200000,  -5.04000,
,,,00.000004240000,  -4.88000,
,,,00.000004280000,  -4.96000,
,,,00.000004320000,  -4.96000,
,,,00.000004360000,  -4.96000,
,,,00.000004400000,  -4.96000,
,,,00.000004440000,  -4.96000,
,,,00.000004480000,  -4.96000,
,,,00.000004520000,  -5.04000,
,,,00.000004560000,  -4.96000,
,,,00.000004600000,  -4.96000,
,,,00.000004640000,  -4.96000,
,,,00.000004680000,  -4.96000,
,,,00.000004720000,  -4.96000,
,,,00.000004760000,  -4.96000,
,,,00.000004800000,  -4.96000,
,,,00.000004840000,  -4.96000,
,,,00.000004880000,  -4.96000,
,,,00.000004920000,  -4.96000,
,,,00.000004960000,  -4.88000,
,,,00.000005000000,  -4.96000,
,,,00.000005040000,  -4.88000,
,,,00.000005080000,  -4.88000,
,,,00.000005120000,  -4.88000,
,,,00.000005160000,  -4.96000,
,,,00.000005200000,  -4.88000,
,,,00.000005240000,  -4.88000,
,,,00.000005280000,  -4.88000,
,,,00.000005320000,  -4.88000,
,,,00.000005360000,  -4.88000,
,,,00.000005400000,  -4.88000,
,,,00.000005440000,  -4.80000,
,,,00.000005480000,  -4.96000,
,,,00.000005520000,  -4.88000,
,,,00.000005560000,  -4.88000,
,,,00.000005600000,  -4.88000,
,,,00.000005640000,  -4.88000,
,,,00.000005680000,  -4.88000,
,,,00.000005720000,  -4.80000,
,,,00.000005760000,  -4.88000,
,,,00.000005800000,  -4.80000,
,,,00.000005840000,  -4.72000,
,,,00.000005880000,  -4.80000,
,,,00.000005920000,  -5.12000,
,,,00.000005960000,  -4.80000,
,,,00.000006000000,  -4.80000,
,,,00.000006040000,  -4.96000,
,,,00.000006080000,  -4.80000,
,,,00.000006120000,  -4.80000,
,,,00.000006160000,  -4.88000,
,,,00.000006200000,  -4.88000,
,,,00.000006240000,  -4.88000,
,,,00.000006280000,  -4.96000,
,,,00.000006320000,  -4.88000,
,,,00.000006360000,  -4.88000,
,,,00.000006400000,  -4.96000,
,,,00.000006440000,  -4.88000,
,,,00.000006480000,  -4.96000,
,,,00.000006520000,  -4.88000,
,,,00.000006560000,  -4.96000,
,,,00.000006600000,  -4.96000,
,,,00.000006640000,  -5.04000,
,,,00.000006680000,  -4.96000,
,,,00.000006720000,  -4.96000,
,,,00.000006760000,  -4.96000,
,,,00.000006800000,  -5.04000,
,,,00.000006840000,  -5.04000,
,,,00.000006880000,  -5.04000,
,,,00.000006920000,  -4.96000,
,,,00.000006960000,  -5.04000,
,,,00.000007000000,  -5.04000,
,,,00.000007040000,  -5.04000,
,,,00.000007080000,  -4.96000,
,,,00.000007120000,  -5.04000,
,,,00.000007160000,  -5.04000,
,,,00.000007200000,  -4.96000,
,,,00.000007240000,  -4.96000,
,,,00.000007280000,  -5.04000,
,,,00.000007320000,  -5.04000,
,,,00.000007360000,  -4.96000,
,,,00.000007400000,  -5.12000,
,,,00.000007440000,  -5.04000,
,,,00.000007480000,  -5.12000,
,,,00.000007520000,  -5.12000,
,,,00.000007560000,  -5.04000,
,,,00.000007600000,  -5.20000,
,,,00.000007640000,  -5.12000,
,,,00.000007680000,  -5.04000,
,,,00.000007720000,  -5.12000,
,,,00.000007760000,  -5.04000,
,,,00.000007800000,  -5.04000,
,,,00.000007840000,  -5.20000,
,,,00.000007880000,  -5.12000,
,,,00.000007920000,  -5.12000,
,,,00.000007960000,  -5.12000,
,,,00.000008000000,  -5.12000,
,,,00.000008040000,  -5.20000,
,,,00.000008080000,  -5.20000,
,,,00.000008120000,  -5.12000,
,,,00.000008160000,  -5.12000,
,,,00.000008200000,  -5.04000,
,,,00.000008240000,  -5.12000,
,,,00.000008280000,  -5.12000,
,,,00.000008320000,  -5.20000,
,,,00.000008360000,  -5.04000,
,,,00.000008400000,  -5.12000,
,,,00.000008440000,  -5.12000,
,,,00.000008480000,  -5.12000,
,,,00.000008520000,  -5.12000,
,,,00.000008560000,  -5.12000,
,,,00.000008600000,  -5.12000,
,,,00.000008640000,  -5.12000,
,,,00.000008680000,  -5.12000,
,,,00.000008720000,  -5.04000,
,,,00.000008760000,  -5.12000,
,,,00.000008800000,  -5.12000,
,,,00.000008840000,  -5.20000,
,,,00.000008880000,  -5.12000,
,,,00.000008920000,  -5.12000,
,,,00.000008960000,  -5.12000,
,,,00.000009000000,  -5.04000,
,,,00.000009040000,  -5.04000,
,,,00.000009080000,  -5.04000,
,,,00.000009120000,  -5.04000,
,,,00.000009160000,  -5.12000,
,,,00.000009200000,  -5.04000,
,,,00.000009240000,  -5.04000,
,,,00.000009280000,  -5.04000,
,,,00.000009320000,  -5.12000,
,,,00.000009360000,  -5.12000,
,,,00.000009400000,  -5.12000,
,,,00.000009440000,  -5.12000,
,,,00.000009480000,  -5.20000,
,,,00.000009520000,  -5.04000,
,,,00.000009560000,  -5.12000,
,,,00.000009600000,  -5.04000,
,,,00.000009640000,  -4.96000,
,,,00.000009680000,  -5.04000,
,,,00.000009720000,  -5.04000,
,,,00.000009760000,  -5.04000,
,,,00.000009800000,  -4.96000,
,,,00.000009840000,  -5.04000,
,,,00.000009880000,  -5.12000,
,,,00.000009920000,  -5.04000,
,,,00.000009960000,  -4.96000,
,,,00.000010000000,  -4.88000,
,,,00.000010040000,  -4.88000,
,,,00.000010080000,  -5.04000,
,,,00.000010120000,  -5.04000,
,,,00.000010160000,  -5.12000,
,,,00.000010200000,  -5.04000,
,,,00.000010240000,  -4.96000,
,,,00.000010280000,  -4.96000,
,,,00.000010320000,  -4.96000,
,,,00.000010360000,  -4.88000,
,,,00.000010400000,  -4.96000,
,,,00.000010440000,  -4.96000,
,,,00.000010480000,  -4.96000,
,,,00.000010520000,  -4.96000,
,,,00.000010560000,  -5.12000,
,,,00.000010600000,  -4.88000,
,,,00.000010640000,  -4.96000,
,,,00.000010680000,  -4.88000,
,,,00.000010720000,  -4.96000,
,,,00.000010760000,  -5.04000,
,,,00.000010800000,  -4.96000,
,,,00.000010840000,  -4.80000,
,,,00.000010880000,  -5.04000,
,,,00.000010920000,  -4.96000,
,,,00.000010960000,  -4.88000,
,,,00.000011000000,  -4.96000,
,,,00.000011040000,  -4.88000,
,,,00.000011080000,  -4.88000,
,,,00.000011120000,  -4.96000,
,,,00.000011160000,  -4.88000,
,,,00.000011200000,  -4.88000,
,,,00.000011240000,  -4.88000,
,,,00.000011280000,  -4.96000,
,,,00.000011320000,  -4.96000,
,,,00.000011360000,  -4.96000,
,,,00.000011400000,  -4.88000,
,,,00.000011440000,  -4.88000,
,,,00.000011480000,  -4.96000,
,,,00.000011520000,  -4.96000,
,,,00.000011560000,  -4.88000,
,,,00.000011600000,  -4.88000,
,,,00.000011640000,  -4.96000,
,,,00.000011680000,  -4.96000,
,,,00.000011720000,  -4.88000,
,,,00.000011760000,  -4.96000,
,,,00.000011800000,  -5.04000,
,,,00.000011840000,  -4.88000,
,,,00.000011880000,  -4.88000,
,,,00.000011920000,  -5.04000,
,,,00.000011960000,  -4.96000,
,,,00.000012000000,  -5.04000,
,,,00.000012040000,  -5.04000,
,,,00.000012080000,  -4.96000,
,,,00.000012120000,  -4.96000,
,,,00.000012160000,  -4.88000,
,,,00.000012200000,  -4.88000,
,,,00.000012240000,  -5.04000,
,,,00.000012280000,  -5.04000,
,,,00.000012320000,  -4.96000,
,,,00.000012360000,  -4.96000,
,,,00.000012400000,  -4.96000,
,,,00.000012440000,  -4.96000,
,,,00.000012480000,  -5.04000,
,,,00.000012520000,  -5.04000,
,,,00.000012560000,  -5.04000,
,,,00.000012600000,  -4.96000,
,,,00.000012640000,  -5.12000,
,,,00.000012680000,  -5.04000,
,,,00.000012720000,  -5.12000,
,,,00.000012760000,  -5.04000,
,,,00.000012800000,  -5.04000,
,,,00.000012840000,  -5.12000,
,,,00.000012880000,  -4.96000,
,,,00.000012920000,  -5.04000,
,,,00.000012960000,  -5.04000,
,,,00.000013000000,  -5.12000,
,,,00.000013040000,  -5.04000,
,,,00.000013080000,  -5.04000,
,,,00.000013120000,  -5.04000,
,,,00.000013160000,  -5.04000,
,,,00.000013200000,  -5.04000,
,,,00.000013240000,  -5.04000,
,,,00.000013280000,  -5.12000,
,,,00.000013320000,  -5.12000,
