PHYS3114/lab1/data/ALL0017/F0017CH1.CSV

Record Length,2.500000e+03,,  -0.000084000000,   5.20000,
Sample Interval,2.000000e-07,,  -0.000083800000,   5.12000,
Trigger Point,4.200000000000e+02,,  -0.000083600000,   5.20000,
,,,  -0.000083400000,   5.20000,
,,,  -0.000083200000,   5.20000,
,,,  -0.000083000000,   5.12000,
Source,CH1,,  -0.000082800000,   5.12000,
Vertical Units,V,,  -0.000082600000,   5.12000,
Vertical Scale,2.000000e+00,,  -0.000082400000,   5.20000,
Vertical Offset,0.000000e+00,,  -0.000082200000,   5.12000,
Horizontal Units,s,,  -0.000082000000,   5.20000,
Horizontal Scale,5.000000e-05,,  -0.000081800000,   5.20000,
Pt Fmt,Y,,  -0.000081600000,   5.20000,
Yzero,0.000000e+00,,  -0.000081400000,   5.12000,
Probe Atten,1.000000e+00,,  -0.000081200000,   5.12000,
Model Number,TBS1072B-EDU,,  -0.000081000000,   5.20000,
Serial Number,C013497,,  -0.000080800000,   5.20000,
Firmware Version,FV:v4.0,,  -0.000080600000,   5.20000,
,,,-00.000080400000,   5.12000,
,,,-00.000080200000,   5.20000,
,,,-00.000080000000,   5.20000,
,,,-00.000079800000,   5.20000,
,,,-00.000079600000,   5.12000,
,,,-00.000079400000,   5.20000,
,,,-00.000079200000,   5.20000,
,,,-00.000079000000,   5.12000,
,,,-00.000078800000,   5.12000,
,,,-00.000078600000,   5.12000,
,,,-00.000078400000,   5.28000,
,,,-00.000078200000,   5.12000,
,,,-00.000078000000,   5.12000,
,,,-00.000077800000,   5.20000,
,,,-00.000077600000,   5.28000,
,,,-00.000077400000,   5.12000,
,,,-00.000077200000,   5.12000,
,,,-00.000077000000,   5.12000,
,,,-00.000076800000,   5.20000,
,,,-00.000076600000,   5.20000,
,,,-00.000076400000,   5.12000,
,,,-00.000076200000,   5.12000,
,,,-00.000076000000,   5.12000,
,,,-00.000075800000,   5.28000,
,,,-00.000075600000,   5.20000,
,,,-00.000075400000,   5.20000,
,,,-00.000075200000,   5.20000,
,,,-00.000075000000,   5.12000,
,,,-00.000074800000,   5.12000,
,,,-00.000074600000,   5.20000,
,,,-00.000074400000,   5.20000,
,,,-00.000074200000,   5.20000,
,,,-00.000074000000,   5.20000,
,,,-00.000073800000,   5.20000,
,,,-00.000073600000,   5.12000,
,,,-00.000073400000,   5.20000,
,,,-00.000073200000,   5.12000,
,,,-00.000073000000,   5.28000,
,,,-00.000072800000,   5.28000,
,,,-00.000072600000,   5.20000,
,,,-00.000072400000,   5.20000,
,,,-00.000072200000,   5.20000,
,,,-00.000072000000,   5.12000,
,,,-00.000071800000,   5.20000,
,,,-00.000071600000,   5.12000,
,,,-00.000071400000,   5.20000,
,,,-00.000071200000,   5.12000,
,,,-00.000071000000,   5.20000,
,,,-00.000070800000,   5.20000,
,,,-00.000070600000,   5.12000,
,,,-00.000070400000,   5.04000,
,,,-00.000070200000,   5.12000,
,,,-00.000070000000,   5.04000,
,,,-00.000069800000,   5.12000,
,,,-00.000069600000,   5.12000,
,,,-00.000069400000,   5.20000,
,,,-00.000069200000,   5.20000,
,,,-00.000069000000,   5.12000,
,,,-00.000068800000,   5.12000,
,,,-00.000068600000,   5.12000,
,,,-00.000068400000,   5.12000,
,,,-00.000068200000,   5.20000,
,,,-00.000068000000,   5.20000,
,,,-00.000067800000,   5.20000,
,,,-00.000067600000,   5.20000,
,,,-00.000067400000,   5.28000,
,,,-00.000067200000,   5.12000,
,,,-00.000067000000,   5.20000,
,,,-00.000066800000,   5.20000,
,,,-00.000066600000,   5.12000,
,,,-00.000066400000,   5.20000,
,,,-00.000066200000,   5.20000,
,,,-00.000066000000,   5.20000,
,,,-00.000065800000,   5.12000,
,,,-00.000065600000,   5.20000,
,,,-00.000065400000,   5.12000,
,,,-00.000065200000,   5.12000,
,,,-00.000065000000,   5.12000,
,,,-00.000064800000,   5.20000,
,,,-00.000064600000,   5.20000,
,,,-00.000064400000,   5.12000,
,,,-00.000064200000,   5.20000,
,,,-00.000064000000,   5.12000,
,,,-00.000063800000,   5.20000,
,,,-00.000063600000,   5.12000,
,,,-00.000063400000,   5.20000,
,,,-00.000063200000,   5.20000,
,,,-00.000063000000,   5.12000,
,,,-00.000062800000,   5.20000,
,,,-00.000062600000,   5.20000,
,,,-00.000062400000,   5.20000,
,,,-00.000062200000,   5.12000,
,,,-00.000062000000,   5.20000,
,,,-00.000061800000,   5.20000,
,,,-00.000061600000,   5.12000,
,,,-00.000061400000,   5.12000,
,,,-00.000061200000,   5.20000,
,,,-00.000061000000,   5.12000,
,,,-00.000060800000,   5.12000,
,,,-00.000060600000,   5.12000,
,,,-00.000060400000,   5.12000,
,,,-00.000060200000,   5.28000,
,,,-00.000060000000,   5.20000,
,,,-00.000059800000,   5.12000,
,,,-00.000059600000,   5.12000,
,,,-00.000059400000,   5.12000,
,,,-00.000059200000,   5.12000,
,,,-00.000059000000,   5.04000,
,,,-00.000058800000,   5.20000,
,,,-00.000058600000,   5.12000,
,,,-00.000058400000,   5.20000,
,,,-00.000058200000,   5.12000,
,,,-00.000058000000,   5.12000,
,,,-00.000057800000,   5.20000,
,,,-00.000057600000,   5.12000,
,,,-00.000057400000,   5.12000,
,,,-00.000057200000,   5.12000,
,,,-00.000057000000,   5.12000,
,,,-00.000056800000,   5.20000,
,,,-00.000056600000,   5.20000,
,,,-00.000056400000,   5.20000,
,,,-00.000056200000,   5.28000,
,,,-00.000056000000,   5.28000,
,,,-00.000055800000,   5.20000,
,,,-00.000055600000,   5.12000,
,,,-00.000055400000,   5.20000,
,,,-00.000055200000,   5.12000,
,,,-00.000055000000,   5.12000,
,,,-00.000054800000,   5.20000,
,,,-00.000054600000,   5.28000,
,,,-00.000054400000,   5.20000,
,,,-00.000054200000,   5.20000,
,,,-00.000054000000,   5.20000,
,,,-00.000053800000,   5.20000,
,,,-00.000053600000,   5.20000,
,,,-00.000053400000,   5.04000,
,,,-00.000053200000,   5.12000,
,,,-00.000053000000,   5.12000,
,,,-00.000052800000,   5.20000,
,,,-00.000052600000,   5.20000,
,,,-00.000052400000,   5.20000,
,,,-00.000052200000,   5.12000,
,,,-00.000052000000,   5.12000,
,,,-00.000051800000,   5.20000,
,,,-00.000051600000,   5.20000,
,,,-00.000051400000,   5.20000,
,,,-00.000051200000,   5.20000,
,,,-00.000051000000,   5.20000,
,,,-00.000050800000,   5.12000,
,,,-00.000050600000,   5.12000,
,,,-00.000050400000,   5.20000,
,,,-00.000050200000,   5.20000,
,,,-00.000050000000,   5.12000,
,,,-00.000049800000,   5.20000,
,,,-00.000049600000,   5.12000,
,,,-00.000049400000,   5.20000,
,,,-00.000049200000,   5.20000,
,,,-00.000049000000,   5.04000,
,,,-00.000048800000,   5.20000,
,,,-00.000048600000,   5.12000,
,,,-00.000048400000,   5.20000,
,,,-00.000048200000,   5.20000,
,,,-00.000048000000,   5.12000,
,,,-00.000047800000,   5.20000,
,,,-00.000047600000,   5.12000,
,,,-00.000047400000,   5.20000,
,,,-00.000047200000,   5.20000,
,,,-00.000047000000,   5.12000,
,,,-00.000046800000,   5.20000,
,,,-00.000046600000,   5.20000,
,,,-00.000046400000,   5.20000,
,,,-00.000046200000,   5.12000,
,,,-00.000046000000,   5.20000,
,,,-00.000045800000,   5.28000,
,,,-00.000045600000,   5.12000,
,,,-00.000045400000,   5.12000,
,,,-00.000045200000,   5.12000,
,,,-00.000045000000,   5.12000,
,,,-00.000044800000,   5.12000,
,,,-00.000044600000,   5.20000,
,,,-00.000044400000,   5.28000,
,,,-00.000044200000,   5.20000,
,,,-00.000044000000,   5.20000,
,,,-00.000043800000,   5.20000,
,,,-00.000043600000,   5.12000,
,,,-00.000043400000,   5.12000,
,,,-00.000043200000,   5.20000,
,,,-00.000043000000,   5.20000,
,,,-00.000042800000,   5.12000,
,,,-00.000042600000,   5.20000,
,,,-00.000042400000,   5.12000,
,,,-00.000042200000,   5.20000,
,,,-00.000042000000,   5.20000,
,,,-00.000041800000,   5.12000,
,,,-00.000041600000,   5.12000,
,,,-00.000041400000,   5.20000,
,,,-00.000041200000,   5.20000,
,,,-00.000041000000,   5.20000,
,,,-00.000040800000,   5.12000,
,,,-00.000040600000,   5.20000,
,,,-00.000040400000,   5.20000,
,,,-00.000040200000,   5.20000,
,,,-00.000040000000,   5.20000,
,,,-00.000039800000,   5.12000,
,,,-00.000039600000,   5.20000,
,,,-00.000039400000,   5.20000,
,,,-00.000039200000,   5.12000,
,,,-00.000039000000,   5.12000,
,,,-00.000038800000,   5.20000,
,,,-00.000038600000,   5.20000,
,,,-00.000038400000,   5.12000,
,,,-00.000038200000,   5.12000,
,,,-00.000038000000,   5.28000,
,,,-00.000037800000,   5.20000,
,,,-00.000037600000,   5.12000,
,,,-00.000037400000,   5.04000,
,,,-00.000037200000,   5.20000,
,,,-00.000037000000,   5.12000,
,,,-00.000036800000,   5.20000,
,,,-00.000036600000,   5.12000,
,,,-00.000036400000,   5.20000,
,,,-00.000036200000,   5.20000,
,,,-00.000036000000,   5.12000,
,,,-00.000035800000,   5.12000,
,,,-00.000035600000,   5.20000,
,,,-00.000035400000,   5.20000,
,,,-00.000035200000,   5.20000,
,,,-00.000035000000,   5.12000,
,,,-00.000034800000,   5.12000,
,,,-00.000034600000,   5.12000,
,,,-00.000034400000,   5.20000,
,,,-00.000034200000,   5.12000,
,,,-00.000034000000,   5.12000,
,,,-00.000033800000,   5.20000,
,,,-00.000033600000,   5.12000,
,,,-00.000033400000,   5.20000,
,,,-00.000033200000,   5.12000,
,,,-00.000033000000,   5.12000,
,,,-00.000032800000,   5.20000,
,,,-00.000032600000,   5.12000,
,,,-00.000032400000,   5.12000,
,,,-00.000032200000,   5.20000,
,,,-00.000032000000,   5.20000,
,,,-00.000031800000,   5.20000,
,,,-00.000031600000,   5.20000,
,,,-00.000031400000,   5.20000,
,,,-00.000031200000,   5.20000,
,,,-00.000031000000,   5.20000,
,,,-00.000030800000,   5.12000,
,,,-00.000030600000,   5.20000,
,,,-00.000030400000,   5.20000,
,,,-00.000030200000,   5.20000,
,,,-00.000030000000,   5.20000,
,,,-00.000029800000,   5.20000,
,,,-00.000029600000,   5.28000,
,,,-00.000029400000,   5.20000,
,,,-00.000029200000,   5.12000,
,,,-00.000029000000,   5.20000,
,,,-00.000028800000,   5.20000,
,,,-00.000028600000,   5.12000,
,,,-00.000028400000,   5.20000,
,,,-00.000028200000,   5.20000,
,,,-00.000028000000,   5.12000,
,,,-00.000027800000,   5.20000,
,,,-00.000027600000,   5.20000,
,,,-00.000027400000,   5.20000,
,,,-00.000027200000,   5.20000,
,,,-00.000027000000,   5.20000,
,,,-00.000026800000,   5.20000,
,,,-00.000026600000,   5.20000,
,,,-00.000026400000,   5.12000,
,,,-00.000026200000,   5.28000,
,,,-00.000026000000,   5.20000,
,,,-00.000025800000,   5.20000,
,,,-00.000025600000,   5.20000,
,,,-00.000025400000,   5.20000,
,,,-00.000025200000,   5.12000,
,,,-00.000025000000,   5.20000,
,,,-00.000024800000,   5.20000,
,,,-00.000024600000,   5.12000,
,,,-00.000024400000,   5.12000,
,,,-00.000024200000,   5.20000,
,,,-00.000024000000,   5.20000,
,,,-00.000023800000,   5.12000,
,,,-00.000023600000,   5.12000,
,,,-00.000023400000,   5.12000,
,,,-00.000023200000,   5.20000,
,,,-00.000023000000,   5.12000,
,,,-00.000022800000,   5.20000,
,,,-00.000022600000,   5.12000,
,,,-00.000022400000,   5.20000,
,,,-00.000022200000,   5.28000,
,,,-00.000022000000,   5.12000,
,,,-00.000021800000,   5.12000,
,,,-00.000021600000,   5.28000,
,,,-00.000021400000,   5.12000,
,,,-00.000021200000,   5.20000,
,,,-00.000021000000,   5.12000,
,,,-00.000020800000,   5.20000,
,,,-00.000020600000,   5.20000,
,,,-00.000020400000,   5.20000,
,,,-00.000020200000,   5.12000,
,,,-00.000020000000,   5.12000,
,,,-00.000019800000,   5.20000,
,,,-00.000019600000,   5.12000,
,,,-00.000019400000,   5.12000,
,,,-00.000019200000,   5.12000,
,,,-00.000019000000,   5.12000,
,,,-00.000018800000,   5.12000,
,,,-00.000018600000,   5.12000,
,,,-00.000018400000,   5.12000,
,,,-00.000018200000,   5.20000,
,,,-00.000018000000,   5.12000,
,,,-00.000017800000,   5.12000,
,,,-00.000017600000,   5.04000,
,,,-00.000017400000,   5.12000,
,,,-00.000017200000,   5.12000,
,,,-00.000017000000,   5.12000,
,,,-00.000016800000,   5.12000,
,,,-00.000016600000,   5.20000,
,,,-00.000016400000,   5.20000,
,,,-00.000016200000,   5.12000,
,,,-00.000016000000,   5.12000,
,,,-00.000015800000,   5.20000,
,,,-00.000015600000,   5.12000,
,,,-00.000015400000,   5.12000,
,,,-00.000015200000,   5.12000,
,,,-00.000015000000,   5.12000,
,,,-00.000014800000,   5.12000,
,,,-00.000014600000,   5.20000,
,,,-00.000014400000,   5.12000,
,,,-00.000014200000,   5.12000,
,,,-00.000014000000,   5.20000,
,,,-00.000013800000,   5.12000,
,,,-00.000013600000,   5.20000,
,,,-00.000013400000,   5.12000,
,,,-00.000013200000,   5.28000,
,,,-00.000013000000,   5.12000,
,,,-00.000012800000,   5.12000,
,,,-00.000012600000,   5.12000,
,,,-00.000012400000,   5.12000,
,,,-00.000012200000,   5.20000,
,,,-00.000012000000,   5.20000,
,,,-00.000011800000,   5.12000,
,,,-00.000011600000,   5.20000,
,,,-00.000011400000,   5.20000,
,,,-00.000011200000,   5.04000,
,,,-00.000011000000,   5.12000,
,,,-00.000010800000,   5.12000,
,,,-00.000010600000,   5.12000,
,,,-00.000010400000,   5.12000,
,,,-00.000010200000,   5.20000,
,,,-00.000010000000,   5.12000,
,,,-00.000009800000,   5.12000,
,,,-00.000009600000,   5.12000,
,,,-00.000009400000,   5.04000,
,,,-00.000009200000,   5.12000,
,,,-00.000009000000,   5.20000,
,,,-00.000008800000,   5.20000,
,,,-00.000008600000,   5.20000,
,,,-00.000008400000,   5.20000,
,,,-00.000008200000,   5.12000,
,,,-00.000008000000,   5.20000,
,,,-00.000007800000,   5.04000,
,,,-00.000007600000,   5.12000,
,,,-00.000007400000,   5.12000,
,,,-00.000007200000,   5.20000,
,,,-00.000007000000,   5.12000,
,,,-00.000006800000,   5.20000,
,,,-00.000006600000,   5.12000,
,,,-00.000006400000,   5.20000,
,,,-00.000006200000,   5.20000,
,,,-00.000006000000,   5.20000,
,,,-00.000005800000,   5.12000,
,,,-00.000005600000,   5.20000,
,,,-00.000005400000,   5.20000,
,,,-00.000005200000,   5.20000,
,,,-00.000005000000,   5.12000,
,,,-00.000004800000,   5.12000,
,,,-00.000004600000,   5.20000,
,,,-00.000004400000,   5.12000,
,,,-00.000004200000,   5.12000,
,,,-00.000004000000,   5.12000,
,,,-00.000003800000,   5.04000,
,,,-00.000003600000,   5.12000,
,,,-00.000003400000,   5.20000,
,,,-00.000003200000,   5.12000,
,,,-00.000003000000,   5.12000,
,,,-00.000002800000,   5.20000,
,,,-00.000002600000,   5.12000,
,,,-00.000002400000,   5.20000,
,,,-00.000002200000,   5.12000,
,,,-00.000002000000,   5.12000,
,,,-00.000001800000,   5.12000,
,,,-00.000001600000,   5.12000,
,,,-00.000001400000,   5.12000,
,,,-00.000001200000,   5.12000,
,,,-00.000001000000,   5.20000,
,,,-00.000000800000,   5.12000,
,,,-00.000000600000,   5.20000,
,,,-00.000000400000,   5.12000,
,,,-00.000000200000,   5.12000,
,,,-00.000000000000,   5.12000,
,,,00.000000200000,   5.20000,
,,,00.000000400000,   5.04000,
,,,00.000000600000,   5.12000,
,,,00.000000800000,   5.12000,
,,,00.000001000000,   5.12000,
,,,00.000001200000,   5.20000,
,,,00.000001400000,  -4.72000,
,,,00.000001600000,  -4.72000,
,,,00.000001800000,  -4.80000,
,,,00.000002000000,  -4.72000,
,,,00.000002200000,  -4.80000,
,,,00.000002400000,  -4.72000,
,,,00.000002600000,  -4.72000,
,,,00.000002800000,  -4.80000,
,,,00.000003000000,  -4.88000,
,,,00.000003200000,  -4.88000,
,,,00.000003400000,  -4.88000,
,,,00.000003600000,  -4.96000,
,,,00.000003800000,  -4.96000,
,,,00.000004000000,  -5.04000,
,,,00.000004200000,  -5.04000,
,,,00.000004400000,  -5.04000,
,,,00.000004600000,  -5.04000,
,,,00.000004800000,  -4.96000,
,,,00.000005000000,  -5.04000,
,,,00.000005200000,  -5.04000,
,,,00.000005400000,  -4.96000,
,,,00.000005600000,  -4.96000,
,,,00.000005800000,  -4.96000,
,,,00.000006000000,  -4.96000,
,,,00.000006200000,  -4.88000,
,,,00.000006400000,  -4.88000,
,,,00.000006600000,  -4.88000,
,,,00.000006800000,  -4.88000,
,,,00.000007000000,  -4.80000,
,,,00.000007200000,  -4.96000,
,,,00.000007400000,  -4.88000,
,,,00.000007600000,  -4.88000,
,,,00.000007800000,  -4.88000,
,,,00.000008000000,  -5.04000,
,,,00.000008200000,  -5.04000,
,,,00.000008400000,  -5.04000,
,,,00.000008600000,  -4.96000,
,,,00.000008800000,  -5.04000,
,,,00.000009000000,  -5.12000,
,,,00.000009200000,  -5.20000,
,,,00.000009400000,  -5.04000,
,,,00.000009600000,  -5.12000,
,,,00.000009800000,  -5.04000,
,,,00.000010000000,  -5.12000,
,,,00.000010200000,  -5.04000,
,,,00.000010400000,  -5.04000,
,,,00.000010600000,  -5.04000,
,,,00.000010800000,  -5.04000,
,,,00.000011000000,  -4.96000,
,,,00.000011200000,  -5.04000,
,,,00.000011400000,  -4.96000,
,,,00.000011600000,  -4.88000,
,,,00.000011800000,  -4.96000,
,,,00.000012000000,  -4.88000,
,,,00.000012200000,  -4.88000,
,,,00.000012400000,  -4.88000,
,,,00.000012600000,  -4.88000,
,,,00.000012800000,  -4.88000,
,,,00.000013000000,  -4.96000,
,,,00.000013200000,  -4.88000,
,,,00.000013400000,  -4.96000,
,,,00.000013600000,  -5.04000,
,,,00.000013800000,  -4.96000,
,,,00.000014000000,  -5.04000,
,,,00.000014200000,  -5.12000,
,,,00.000014400000,  -5.12000,
,,,00.000014600000,  -5.04000,
,,,00.000014800000,  -5.04000,
,,,00.000015000000,  -5.04000,
,,,00.000015200000,  -5.12000,
,,,00.000015400000,  -5.04000,
,,,00.000015600000,  -5.04000,
,,,00.000015800000,  -5.04000,
,,,00.000016000000,  -5.04000,
,,,00.000016200000,  -4.96000,
,,,00.000016400000,  -4.96000,
,,,00.000016600000,  -5.04000,
,,,00.000016800000,  -4.96000,
,,,00.000017000000,  -4.96000,
,,,00.000017200000,  -4.96000,
,,,00.000017400000,  -4.88000,
,,,00.000017600000,  -4.96000,
,,,00.000017800000,  -4.96000,
,,,00.000018000000,  -4.96000,
,,,00.000018200000,  -5.12000,
,,,00.000018400000,  -5.04000,
,,,00.000018600000,  -5.12000,
,,,00.000018800000,  -5.04000,
,,,00.000019000000,  -5.12000,
,,,00.000019200000,  -5.12000,
,,,00.000019400000,  -5.12000,
,,,00.000019600000,  -5.04000,
,,,00.000019800000,  -5.12000,
,,,00.000020000000,  -5.12000,
,,,00.000020200000,  -5.04000,
,,,00.000020400000,  -5.04000,
,,,00.000020600000,  -5.04000,
,,,00.000020800000,  -5.04000,
,,,00.000021000000,  -5.04000,
,,,00.000021200000,  -4.96000,
,,,00.000021400000,  -5.04000,
,,,00.000021600000,  -5.04000,
,,,00.000021800000,  -4.88000,
,,,00.000022000000,  -4.96000,
,,,00.000022200000,  -4.88000,
,,,00.000022400000,  -4.88000,
,,,00.000022600000,  -5.04000,
,,,00.000022800000,  -4.96000,
,,,00.000023000000,  -5.12000,
,,,00.000023200000,  -4.96000,
,,,00.000023400000,  -5.04000,
,,,00.000023600000,  -4.96000,
,,,00.000023800000,  -5.12000,
,,,00.000024000000,  -5.12000,
,,,00.000024200000,  -5.04000,
,,,00.000024400000,  -5.04000,
,,,00.000024600000,  -5.04000,
,,,00.000024800000,  -5.12000,
,,,00.000025000000,  -5.12000,
,,,00.000025200000,  -5.04000,
,,,00.000025400000,  -4.96000,
,,,00.000025600000,  -5.12000,
,,,00.000025800000,  -5.04000,
,,,00.000026000000,  -4.96000,
,,,00.000026200000,  -4.88000,
,,,00.000026400000,  -4.96000,
,,,00.000026600000,  -4.88000,
,,,00.000026800000,  -4.96000,
,,,00.000027000000,  -4.88000,
,,,00.000027200000,  -5.12000,
,,,00.000027400000,  -4.96000,
,,,00.000027600000,  -4.96000,
,,,00.000027800000,  -5.04000,
,,,00.000028000000,  -5.12000,
,,,00.000028200000,  -5.04000,
,,,00.000028400000,  -5.04000,
,,,00.000028600000,  -5.12000,
,,,00.000028800000,  -5.28000,
,,,00.000029000000,  -5.20000,
,,,00.000029200000,  -5.20000,
,,,00.000029400000,  -5.20000,
,,,00.000029600000,  -5.04000,
,,,00.000029800000,  -5.12000,
,,,00.000030000000,  -5.20000,
,,,00.000030200000,  -5.12000,
,,,00.000030400000,  -5.20000,
,,,00.000030600000,  -5.12000,
,,,00.000030800000,  -5.04000,
,,,00.000031000000,  -5.04000,
,,,00.000031200000,  -4.96000,
,,,00.000031400000,  -4.96000,
,,,00.000031600000,  -4.96000,
,,,00.000031800000,  -4.88000,
,,,00.000032000000,  -4.96000,
,,,00.000032200000,  -4.88000,
,,,00.000032400000,  -4.88000,
,,,00.000032600000,  -4.88000,
,,,00.000032800000,  -4.96000,
,,,00.000033000000,  -4.96000,
,,,00.000033200000,  -5.04000,
,,,00.000033400000,  -4.96000,
,,,00.000033600000,  -5.04000,
,,,00.000033800000,  -5.04000,
,,,00.000034000000,  -5.04000,
,,,00.000034200000,  -5.04000,
,,,00.000034400000,  -5.04000,
,,,00.000034600000,  -5.04000,
,,,00.000034800000,  -5.20000,
,,,00.000035000000,  -5.12000,
,,,00.000035200000,  -5.12000,
,,,00.000035400000,  -5.04000,
,,,00.000035600000,  -5.04000,
,,,00.000035800000,  -5.04000,
,,,00.000036000000,  -5.04000,
,,,00.000036200000,  -5.04000,
,,,00.000036400000,  -5.04000,
,,,00.000036600000,  -5.04000,
,,,00.000036800000,  -4.96000,
,,,00.000037000000,  -4.96000,
,,,00.000037200000,  -5.04000,
,,,00.000037400000,  -4.96000,
,,,00.000037600000,  -5.04000,
,,,00.000037800000,  -5.04000,
,,,00.000038000000,  -5.04000,
,,,00.000038200000,  -5.04000,
,,,00.000038400000,  -5.04000,
,,,00.000038600000,  -4.96000,
,,,00.000038800000,  -5.12000,
,,,00.000039000000,  -5.12000,
,,,00.000039200000,  -5.12000,
,,,00.000039400000,  -5.04000,
,,,00.000039600000,  -5.20000,
,,,00.000039800000,  -5.12000,
