lab3/data/ALL0011/F0011CH1.CSV

Record Length,2.500000e+03,,  -0.000024000000,  -0.40000,
Sample Interval,2.000000e-07,,  -0.000023800000,  -0.40000,
Trigger Point,1.200000000000e+02,,  -0.000023600000,  -0.40000,
,,,  -0.000023400000,  -0.40000,
,,,  -0.000023200000,  -0.40000,
,,,  -0.000023000000,  -0.40000,
Source,CH1,,  -0.000022800000,  -0.40000,
Vertical Units,V,,  -0.000022600000,  -0.40000,
Vertical Scale,1.000000e+01,,  -0.000022400000,  -0.40000,
Vertical Offset,0.000000e+00,,  -0.000022200000,  -0.40000,
Horizontal Units,s,,  -0.000022000000,   0.00000,
Horizontal Scale,5.000000e-05,,  -0.000021800000,   0.00000,
Pt Fmt,Y,,  -0.000021600000,   0.00000,
Yzero,0.000000e+00,,  -0.000021400000,   0.00000,
Probe Atten,1.000000e+01,,  -0.000021200000,   0.00000,
Model Number,TBS1072B-EDU,,  -0.000021000000,   0.00000,
Serial Number,C013793,,  -0.000020800000,   0.00000,
Firmware Version,FV:v4.0,,  -0.000020600000,   0.00000,
,,,-00.000020400000,   0.00000,
,,,-00.000020200000,   0.00000,
,,,-00.000020000000,   0.00000,
,,,-00.000019800000,   0.00000,
,,,-00.000019600000,   0.00000,
,,,-00.000019400000,   0.00000,
,,,-00.000019200000,   0.00000,
,,,-00.000019000000,   0.00000,
,,,-00.000018800000,   0.00000,
,,,-00.000018600000,   0.00000,
,,,-00.000018400000,   0.00000,
,,,-00.000018200000,   0.00000,
,,,-00.000018000000,   0.00000,
,,,-00.000017800000,   0.00000,
,,,-00.000017600000,   0.00000,
,,,-00.000017400000,   0.00000,
,,,-00.000017200000,   0.00000,
,,,-00.000017000000,   0.00000,
,,,-00.000016800000,  -0.40000,
,,,-00.000016600000,  -0.40000,
,,,-00.000016400000,  -0.40000,
,,,-00.000016200000,  -0.40000,
,,,-00.000016000000,  -0.40000,
,,,-00.000015800000,  -0.40000,
,,,-00.000015600000,  -0.40000,
,,,-00.000015400000,  -0.40000,
,,,-00.000015200000,  -0.40000,
,,,-00.000015000000,  -0.80000,
,,,-00.000014800000,  -0.80000,
,,,-00.000014600000,  -0.80000,
,,,-00.000014400000,  -0.80000,
,,,-00.000014200000,  -0.80000,
,,,-00.000014000000,  -0.80000,
,,,-00.000013800000,  -0.80000,
,,,-00.000013600000,  -0.80000,
,,,-00.000013400000,  -0.80000,
,,,-00.000013200000,  -0.80000,
,,,-00.000013000000,  -0.80000,
,,,-00.000012800000,  -0.80000,
,,,-00.000012600000,  -0.80000,
,,,-00.000012400000,  -0.80000,
,,,-00.000012200000,  -0.80000,
,,,-00.000012000000,  -0.80000,
,,,-00.000011800000,  -0.80000,
,,,-00.000011600000,  -0.80000,
,,,-00.000011400000,  -0.80000,
,,,-00.000011200000,  -0.80000,
,,,-00.000011000000,  -0.40000,
,,,-00.000010800000,  -0.40000,
,,,-00.000010600000,  -0.40000,
,,,-00.000010400000,  -0.40000,
,,,-00.000010200000,  -0.40000,
,,,-00.000010000000,  -0.40000,
,,,-00.000009800000,  -0.40000,
,,,-00.000009600000,  -0.40000,
,,,-00.000009400000,  -0.40000,
,,,-00.000009200000,  -0.40000,
,,,-00.000009000000,  -0.40000,
,,,-00.000008800000,  -0.40000,
,,,-00.000008600000,  -0.40000,
,,,-00.000008400000,  -0.40000,
,,,-00.000008200000,  -0.40000,
,,,-00.000008000000,   0.00000,
,,,-00.000007800000,   0.00000,
,,,-00.000007600000,   0.00000,
,,,-00.000007400000,   0.00000,
,,,-00.000007200000,   0.00000,
,,,-00.000007000000,  -0.40000,
,,,-00.000006800000,  -0.40000,
,,,-00.000006600000,  -0.40000,
,,,-00.000006400000,  -0.80000,
,,,-00.000006200000,  -1.20000,
,,,-00.000006000000,  -1.60000,
,,,-00.000005800000,  -2.40000,
,,,-00.000005600000,  -3.20000,
,,,-00.000005400000,  -4.00000,
,,,-00.000005200000,  -5.20000,
,,,-00.000005000000,  -6.00000,
,,,-00.000004800000,  -7.20000,
,,,-00.000004600000,  -8.40000,
,,,-00.000004400000,  -9.60000,
,,,-00.000004200000, -11.20000,
,,,-00.000004000000, -12.40000,
,,,-00.000003800000, -13.60000,
,,,-00.000003600000, -15.20000,
,,,-00.000003400000, -16.40000,
,,,-00.000003200000, -18.00000,
,,,-00.000003000000, -19.20000,
,,,-00.000002800000, -20.40000,
,,,-00.000002600000, -21.60000,
,,,-00.000002400000, -23.20000,
,,,-00.000002200000, -24.40000,
,,,-00.000002000000, -25.60000,
,,,-00.000001800000, -26.80000,
,,,-00.000001600000, -28.00000,
,,,-00.000001400000, -29.20000,
,,,-00.000001200000, -30.00000,
,,,-00.000001000000, -31.20000,
,,,-00.000000800000, -32.00000,
,,,-00.000000600000, -33.20000,
,,,-00.000000400000, -33.60000,
,,,-00.000000200000, -34.40000,
,,,-00.000000000000, -34.00000,
,,,00.000000200000, -32.80000,
,,,00.000000400000, -30.80000,
,,,00.000000600000, -28.40000,
,,,00.000000800000, -25.20000,
,,,00.000001000000, -21.60000,
,,,00.000001200000, -17.60000,
,,,00.000001400000, -13.60000,
,,,00.000001600000,  -9.20000,
,,,00.000001800000,  -4.40000,
,,,00.000002000000,   0.00000,
,,,00.000002200000,   4.80000,
,,,00.000002400000,   9.20000,
,,,00.000002600000,  13.60000,
,,,00.000002800000,  18.00000,
,,,00.000003000000,  22.00000,
,,,00.000003200000,  26.00000,
,,,00.000003400000,  29.60000,
,,,00.000003600000,  32.80000,
,,,00.000003800000,  35.60000,
,,,00.000004000000,  38.00000,
,,,00.000004200000,  40.00000,
,,,00.000004400000,  41.60000,
,,,00.000004600000,  42.80000,
,,,00.000004800000,  43.60000,
,,,00.000005000000,  44.00000,
,,,00.000005200000,  44.00000,
,,,00.000005400000,  43.60000,
,,,00.000005600000,  42.40000,
,,,00.000005800000,  41.20000,
,,,00.000006000000,  39.60000,
,,,00.000006200000,  37.20000,
,,,00.000006400000,  34.80000,
,,,00.000006600000,  32.00000,
,,,00.000006800000,  29.20000,
,,,00.000007000000,  25.60000,
,,,00.000007200000,  22.00000,
,,,00.000007400000,  18.00000,
,,,00.000007600000,  14.00000,
,,,00.000007800000,  10.00000,
,,,00.000008000000,   6.00000,
,,,00.000008200000,   1.60000,
,,,00.000008400000,  -2.40000,
,,,00.000008600000,  -6.40000,
,,,00.000008800000, -10.80000,
,,,00.000009000000, -14.40000,
,,,00.000009200000, -18.40000,
,,,00.000009400000, -21.60000,
,,,00.000009600000, -24.80000,
,,,00.000009800000, -28.00000,
,,,00.000010000000, -30.40000,
,,,00.000010200000, -32.80000,
,,,00.000010400000, -34.80000,
,,,00.000010600000, -36.80000,
,,,00.000010800000, -38.00000,
,,,00.000011000000, -38.80000,
,,,00.000011200000, -39.20000,
,,,00.000011400000, -39.60000,
,,,00.000011600000, -39.20000,
,,,00.000011800000, -38.40000,
,,,00.000012000000, -37.60000,
,,,00.000012200000, -36.00000,
,,,00.000012400000, -34.40000,
,,,00.000012600000, -32.40000,
,,,00.000012800000, -30.00000,
,,,00.000013000000, -27.20000,
,,,00.000013200000, -24.40000,
,,,00.000013400000, -21.60000,
,,,00.000013600000, -18.40000,
,,,00.000013800000, -14.80000,
,,,00.000014000000, -11.60000,
,,,00.000014200000,  -8.00000,
,,,00.000014400000,  -4.00000,
,,,00.000014600000,  -0.40000,
,,,00.000014800000,   3.20000,
,,,00.000015000000,   6.40000,
,,,00.000015200000,  10.00000,
,,,00.000015400000,  13.20000,
,,,00.000015600000,  16.40000,
,,,00.000015800000,  19.20000,
,,,00.000016000000,  22.00000,
,,,00.000016200000,  24.40000,
,,,00.000016400000,  26.80000,
,,,00.000016600000,  28.80000,
,,,00.000016800000,  30.00000,
,,,00.000017000000,  31.60000,
,,,00.000017200000,  32.40000,
,,,00.000017400000,  33.20000,
,,,00.000017600000,  33.20000,
,,,00.000017800000,  33.20000,
,,,00.000018000000,  32.80000,
,,,00.000018200000,  32.00000,
,,,00.000018400000,  31.20000,
,,,00.000018600000,  29.60000,
,,,00.000018800000,  28.00000,
,,,00.000019000000,  26.40000,
,,,00.000019200000,  24.00000,
,,,00.000019400000,  21.60000,
,,,00.000019600000,  19.20000,
,,,00.000019800000,  16.40000,
,,,00.000020000000,  13.60000,
,,,00.000020200000,  10.40000,
,,,00.000020400000,   7.60000,
,,,00.000020600000,   4.40000,
,,,00.000020800000,   1.20000,
,,,00.000021000000,  -2.00000,
,,,00.000021200000,  -5.20000,
,,,00.000021400000,  -8.00000,
,,,00.000021600000, -11.20000,
,,,00.000021800000, -13.60000,
,,,00.000022000000, -16.40000,
,,,00.000022200000, -18.80000,
,,,00.000022400000, -21.20000,
,,,00.000022600000, -23.20000,
,,,00.000022800000, -24.80000,
,,,00.000023000000, -26.40000,
,,,00.000023200000, -27.60000,
,,,00.000023400000, -28.40000,
,,,00.000023600000, -29.20000,
,,,00.000023800000, -29.60000,
,,,00.000024000000, -29.60000,
,,,00.000024200000, -29.60000,
,,,00.000024400000, -28.80000,
,,,00.000024600000, -28.40000,
,,,00.000024800000, -27.20000,
,,,00.000025000000, -26.00000,
,,,00.000025200000, -24.40000,
,,,00.000025400000, -22.80000,
,,,00.000025600000, -20.80000,
,,,00.000025800000, -18.80000,
,,,00.000026000000, -16.40000,
,,,00.000026200000, -14.00000,
,,,00.000026400000, -11.20000,
,,,00.000026600000,  -8.80000,
,,,00.000026800000,  -6.00000,
,,,00.000027000000,  -3.20000,
,,,00.000027200000,  -0.40000,
,,,00.000027400000,   2.00000,
,,,00.000027600000,   4.80000,
,,,00.000027800000,   7.20000,
,,,00.000028000000,  10.00000,
,,,00.000028200000,  12.00000,
,,,00.000028400000,  14.40000,
,,,00.000028600000,  16.40000,
,,,00.000028800000,  18.40000,
,,,00.000029000000,  20.00000,
,,,00.000029200000,  21.60000,
,,,00.000029400000,  22.80000,
,,,00.000029600000,  23.60000,
,,,00.000029800000,  24.40000,
,,,00.000030000000,  24.80000,
,,,00.000030200000,  25.20000,
,,,00.000030400000,  24.80000,
,,,00.000030600000,  24.80000,
,,,00.000030800000,  24.00000,
,,,00.000031000000,  23.20000,
,,,00.000031200000,  22.40000,
,,,00.000031400000,  21.20000,
,,,00.000031600000,  19.60000,
,,,00.000031800000,  18.00000,
,,,00.000032000000,  16.00000,
,,,00.000032200000,  14.40000,
,,,00.000032400000,  12.00000,
,,,00.000032600000,  10.00000,
,,,00.000032800000,   7.60000,
,,,00.000033000000,   5.60000,
,,,00.000033200000,   3.20000,
,,,00.000033400000,   0.80000,
,,,00.000033600000,  -1.60000,
,,,00.000033800000,  -4.00000,
,,,00.000034000000,  -6.00000,
,,,00.000034200000,  -8.40000,
,,,00.000034400000, -10.40000,
,,,00.000034600000, -12.40000,
,,,00.000034800000, -14.40000,
,,,00.000035000000, -16.00000,
,,,00.000035200000, -17.60000,
,,,00.000035400000, -18.80000,
,,,00.000035600000, -20.00000,
,,,00.000035800000, -20.80000,
,,,00.000036000000, -21.60000,
,,,00.000036200000, -22.00000,
,,,00.000036400000, -22.40000,
,,,00.000036600000, -22.40000,
,,,00.000036800000, -22.40000,
,,,00.000037000000, -22.00000,
,,,00.000037200000, -21.60000,
,,,00.000037400000, -20.80000,
,,,00.000037600000, -19.60000,
,,,00.000037800000, -18.40000,
,,,00.000038000000, -17.20000,
,,,00.000038200000, -15.60000,
,,,00.000038400000, -14.00000,
,,,00.000038600000, -12.40000,
,,,00.000038800000, -10.40000,
,,,00.000039000000,  -8.80000,
,,,00.000039200000,  -6.80000,
,,,00.000039400000,  -4.80000,
,,,00.000039600000,  -2.40000,
,,,00.000039800000,  -0.40000,
,,,00.000040000000,   1.60000,
,,,00.000040200000,   3.60000,
,,,00.000040400000,   5.60000,
,,,00.000040600000,   7.20000,
,,,00.000040800000,   9.20000,
,,,00.000041000000,  10.80000,
,,,00.000041200000,  12.40000,
,,,00.000041400000,  13.60000,
,,,00.000041600000,  14.80000,
,,,00.000041800000,  16.00000,
,,,00.000042000000,  16.80000,
,,,00.000042200000,  17.60000,
,,,00.000042400000,  18.00000,
,,,00.000042600000,  18.40000,
,,,00.000042800000,  18.80000,
,,,00.000043000000,  18.80000,
,,,00.000043200000,  18.40000,
,,,00.000043400000,  18.00000,
,,,00.000043600000,  17.60000,
,,,00.000043800000,  16.80000,
,,,00.000044000000,  15.60000,
,,,00.000044200000,  14.80000,
,,,00.000044400000,  13.60000,
,,,00.000044600000,  12.00000,
,,,00.000044800000,  10.80000,
,,,00.000045000000,   9.20000,
,,,00.000045200000,   7.60000,
,,,00.000045400000,   6.00000,
,,,00.000045600000,   4.00000,
,,,00.000045800000,   2.40000,
,,,00.000046000000,   0.40000,
,,,00.000046200000,  -1.20000,
,,,00.000046400000,  -3.20000,
,,,00.000046600000,  -4.80000,
,,,00.000046800000,  -6.40000,
,,,00.000047000000,  -8.00000,
,,,00.000047200000,  -9.60000,
,,,00.000047400000, -10.80000,
,,,00.000047600000, -12.00000,
,,,00.000047800000, -13.20000,
,,,00.000048000000, -14.40000,
,,,00.000048200000, -15.20000,
,,,00.000048400000, -16.00000,
,,,00.000048600000, -16.40000,
,,,00.000048800000, -16.80000,
,,,00.000049000000, -17.20000,
,,,00.000049200000, -17.20000,
,,,00.000049400000, -17.20000,
,,,00.000049600000, -16.80000,
,,,00.000049800000, -16.40000,
,,,00.000050000000, -15.60000,
,,,00.000050200000, -14.80000,
,,,00.000050400000, -14.00000,
,,,00.000050600000, -13.20000,
,,,00.000050800000, -12.00000,
,,,00.000051000000, -10.80000,
,,,00.000051200000,  -9.60000,
,,,00.000051400000,  -8.00000,
,,,00.000051600000,  -6.40000,
,,,00.000051800000,  -5.20000,
,,,00.000052000000,  -3.60000,
,,,00.000052200000,  -2.00000,
,,,00.000052400000,  -0.40000,
,,,00.000052600000,   1.20000,
,,,00.000052800000,   2.40000,
,,,00.000053000000,   4.00000,
,,,00.000053200000,   5.60000,
,,,00.000053400000,   6.80000,
,,,00.000053600000,   8.00000,
,,,00.000053800000,   9.20000,
,,,00.000054000000,  10.40000,
,,,00.000054200000,  11.20000,
,,,00.000054400000,  12.00000,
,,,00.000054600000,  12.80000,
,,,00.000054800000,  13.20000,
,,,00.000055000000,  13.60000,
,,,00.000055200000,  14.00000,
,,,00.000055400000,  14.00000,
,,,00.000055600000,  14.00000,
,,,00.000055800000,  14.00000,
,,,00.000056000000,  13.60000,
,,,00.000056200000,  13.20000,
,,,00.000056400000,  12.40000,
,,,00.000056600000,  12.00000,
,,,00.000056800000,  11.20000,
,,,00.000057000000,  10.00000,
,,,00.000057200000,   9.20000,
,,,00.000057400000,   8.00000,
,,,00.000057600000,   6.80000,
,,,00.000057800000,   5.60000,
,,,00.000058000000,   4.40000,
,,,00.000058200000,   2.80000,
,,,00.000058400000,   1.60000,
,,,00.000058600000,   0.40000,
,,,00.000058800000,  -1.20000,
,,,00.000059000000,  -2.40000,
,,,00.000059200000,  -3.60000,
,,,00.000059400000,  -4.80000,
,,,00.000059600000,  -6.00000,
,,,00.000059800000,  -7.20000,
,,,00.000060000000,  -8.40000,
,,,00.000060200000,  -9.20000,
,,,00.000060400000, -10.00000,
,,,00.000060600000, -10.80000,
,,,00.000060800000, -11.60000,
,,,00.000061000000, -12.00000,
,,,00.000061200000, -12.40000,
,,,00.000061400000, -12.80000,
,,,00.000061600000, -12.80000,
,,,00.000061800000, -13.20000,
,,,00.000062000000, -12.80000,
,,,00.000062200000, -12.80000,
,,,00.000062400000, -12.40000,
,,,00.000062600000, -12.00000,
,,,00.000062800000, -11.60000,
,,,00.000063000000, -10.80000,
,,,00.000063200000, -10.00000,
,,,00.000063400000,  -9.20000,
,,,00.000063600000,  -8.40000,
,,,00.000063800000,  -7.20000,
,,,00.000064000000,  -6.00000,
,,,00.000064200000,  -5.20000,
,,,00.000064400000,  -4.00000,
,,,00.000064600000,  -2.80000,
,,,00.000064800000,  -1.60000,
,,,00.000065000000,  -0.40000,
,,,00.000065200000,   0.80000,
,,,00.000065400000,   2.00000,
,,,00.000065600000,   2.80000,
,,,00.000065800000,   4.00000,
,,,00.000066000000,   5.20000,
,,,00.000066200000,   6.00000,
,,,00.000066400000,   6.80000,
,,,00.000066600000,   7.60000,
,,,00.000066800000,   8.40000,
,,,00.000067000000,   8.80000,
,,,00.000067200000,   9.60000,
,,,00.000067400000,  10.00000,
,,,00.000067600000,  10.00000,
,,,00.000067800000,  10.40000,
,,,00.000068000000,  10.40000,
,,,00.000068200000,  10.40000,
,,,00.000068400000,  10.40000,
,,,00.000068600000,  10.00000,
,,,00.000068800000,   9.60000,
,,,00.000069000000,   9.20000,
,,,00.000069200000,   8.80000,
,,,00.000069400000,   8.40000,
,,,00.000069600000,   7.60000,
,,,00.000069800000,   6.80000,
,,,00.000070000000,   6.00000,
,,,00.000070200000,   5.20000,
,,,00.000070400000,   4.00000,
,,,00.000070600000,   3.20000,
,,,00.000070800000,   2.00000,
,,,00.000071000000,   1.20000,
,,,00.000071200000,   0.00000,
,,,00.000071400000,  -0.80000,
,,,00.000071600000,  -2.00000,
,,,00.000071800000,  -2.80000,
,,,00.000072000000,  -4.00000,
,,,00.000072200000,  -4.80000,
,,,00.000072400000,  -5.60000,
,,,00.000072600000,  -6.40000,
,,,00.000072800000,  -7.20000,
,,,00.000073000000,  -7.60000,
,,,00.000073200000,  -8.40000,
,,,00.000073400000,  -8.80000,
,,,00.000073600000,  -9.20000,
,,,00.000073800000,  -9.60000,
,,,00.000074000000,  -9.60000,
,,,00.000074200000, -10.00000,
,,,00.000074400000, -10.00000,
,,,00.000074600000, -10.00000,
,,,00.000074800000,  -9.60000,
,,,00.000075000000,  -9.60000,
,,,00.000075200000,  -9.20000,
,,,00.000075400000,  -8.80000,
,,,00.000075600000,  -8.40000,
,,,00.000075800000,  -7.60000,
,,,00.000076000000,  -7.20000,
,,,00.000076200000,  -6.40000,
,,,00.000076400000,  -5.60000,
,,,00.000076600000,  -4.80000,
,,,00.000076800000,  -4.00000,
,,,00.000077000000,  -3.20000,
,,,00.000077200000,  -2.40000,
,,,00.000077400000,  -1.20000,
,,,00.000077600000,  -0.40000,
,,,00.000077800000,   0.40000,
,,,00.000078000000,   1.20000,
,,,00.000078200000,   2.00000,
,,,00.000078400000,   2.80000,
,,,00.000078600000,   3.60000,
,,,00.000078800000,   4.40000,
,,,00.000079000000,   5.20000,
,,,00.000079200000,   5.60000,
,,,00.000079400000,   6.00000,
,,,00.000079600000,   6.80000,
,,,00.000079800000,   7.20000,
,,,00.000080000000,   7.20000,
,,,00.000080200000,   7.60000,
,,,00.000080400000,   7.60000,
,,,00.000080600000,   8.00000,
,,,00.000080800000,   7.60000,
,,,00.000081000000,   7.60000,
,,,00.000081200000,   7.60000,
,,,00.000081400000,   7.20000,
,,,00.000081600000,   6.80000,
,,,00.000081800000,   6.40000,
,,,00.000082000000,   6.00000,
,,,00.000082200000,   5.60000,
,,,00.000082400000,   5.20000,
,,,00.000082600000,   4.40000,
,,,00.000082800000,   3.60000,
,,,00.000083000000,   2.80000,
,,,00.000083200000,   2.40000,
,,,00.000083400000,   1.60000,
,,,00.000083600000,   0.80000,
,,,00.000083800000,   0.00000,
,,,00.000084000000,  -0.80000,
,,,00.000084200000,  -1.60000,
,,,00.000084400000,  -2.40000,
,,,00.000084600000,  -3.20000,
,,,00.000084800000,  -3.60000,
,,,00.000085000000,  -4.40000,
,,,00.000085200000,  -4.80000,
,,,00.000085400000,  -5.60000,
,,,00.000085600000,  -6.00000,
,,,00.000085800000,  -6.40000,
,,,00.000086000000,  -6.80000,
,,,00.000086200000,  -7.20000,
,,,00.000086400000,  -7.20000,
,,,00.000086600000,  -7.60000,
,,,00.000086800000,  -7.60000,
,,,00.000087000000,  -7.60000,
,,,00.000087200000,  -7.60000,
,,,00.000087400000,  -7.60000,
,,,00.000087600000,  -7.20000,
,,,00.000087800000,  -6.80000,
,,,00.000088000000,  -6.80000,
,,,00.000088200000,  -6.40000,
,,,00.000088400000,  -6.00000,
,,,00.000088600000,  -5.20000,
,,,00.000088800000,  -4.80000,
,,,00.000089000000,  -4.40000,
,,,00.000089200000,  -3.60000,
,,,00.000089400000,  -3.20000,
,,,00.000089600000,  -2.40000,
,,,00.000089800000,  -1.60000,
,,,00.000090000000,  -1.20000,
,,,00.000090200000,  -0.40000,
,,,00.000090400000,   0.40000,
,,,00.000090600000,   0.80000,
,,,00.000090800000,   1.60000,
,,,00.000091000000,   2.00000,
,,,00.000091200000,   2.80000,
,,,00.000091400000,   3.20000,
,,,00.000091600000,   3.60000,
,,,00.000091800000,   4.00000,
,,,00.000092000000,   4.40000,
,,,00.000092200000,   4.80000,
,,,00.000092400000,   5.20000,
,,,00.000092600000,   5.60000,
,,,00.000092800000,   5.60000,
,,,00.000093000000,   5.60000,
,,,00.000093200000,   5.60000,
,,,00.000093400000,   5.60000,
,,,00.000093600000,   5.60000,
,,,00.000093800000,   5.60000,
,,,00.000094000000,   5.60000,
,,,00.000094200000,   5.20000,
,,,00.000094400000,   4.80000,
,,,00.000094600000,   4.40000,
,,,00.000094800000,   4.00000,
,,,00.000095000000,   3.60000,
,,,00.000095200000,   3.20000,
,,,00.000095400000,   2.80000,
,,,00.000095600000,   2.00000,
,,,00.000095800000,   1.60000,
,,,00.000096000000,   1.20000,
,,,00.000096200000,   0.40000,
,,,00.000096400000,   0.00000,
,,,00.000096600000,  -0.80000,
,,,00.000096800000,  -1.20000,
,,,00.000097000000,  -2.00000,
,,,00.000097200000,  -2.40000,
,,,00.000097400000,  -2.80000,
,,,00.000097600000,  -3.20000,
,,,00.000097800000,  -3.60000,
,,,00.000098000000,  -4.40000,
,,,00.000098200000,  -4.40000,
,,,00.000098400000,  -4.80000,
,,,00.000098600000,  -5.20000,
,,,00.000098800000,  -5.60000,
,,,00.000099000000,  -5.60000,
,,,00.000099200000,  -5.60000,
,,,00.000099400000,  -6.00000,
,,,00.000099600000,  -6.00000,
,,,00.000099800000,  -5.60000,
,,,00.000100000000,  -5.60000,
,,,00.000100200000,  -5.60000,
,,,00.000100400000,  -5.20000,
,,,00.000100600000,  -5.20000,
,,,00.000100800000,  -4.80000,
,,,00.000101000000,  -4.40000,
,,,00.000101200000,  -4.00000,
,,,00.000101400000,  -3.60000,
,,,00.000101600000,  -3.20000,
,,,00.000101800000,  -2.80000,
