PHYS3114/lab1/data/ALL0012/F0012CH1.CSV

Record Length,2.500000e+03,,  -0.000005000000,   5.20000,
Sample Interval,1.000000e-07,,  -0.000004900000,   5.12000,
Trigger Point,5.000000000000e+01,,  -0.000004800000,   5.20000,
,,,  -0.000004700000,   5.20000,
,,,  -0.000004600000,   5.12000,
,,,  -0.000004500000,   5.20000,
Source,CH1,,  -0.000004400000,   5.12000,
Vertical Units,V,,  -0.000004300000,   5.12000,
Vertical Scale,2.000000e+00,,  -0.000004200000,   5.12000,
Vertical Offset,0.000000e+00,,  -0.000004100000,   5.12000,
Horizontal Units,s,,  -0.000004000000,   5.12000,
Horizontal Scale,2.500000e-05,,  -0.000003900000,   5.12000,
Pt Fmt,Y,,  -0.000003800000,   5.20000,
Yzero,0.000000e+00,,  -0.000003700000,   5.04000,
Probe Atten,1.000000e+00,,  -0.000003600000,   5.12000,
Model Number,TBS1072B-EDU,,  -0.000003500000,   5.20000,
Serial Number,C013497,,  -0.000003400000,   5.12000,
Firmware Version,FV:v4.0,,  -0.000003300000,   5.04000,
,,,-00.000003200000,   5.20000,
,,,-00.000003100000,   5.12000,
,,,-00.000003000000,   5.12000,
,,,-00.000002900000,   5.04000,
,,,-00.000002800000,   5.04000,
,,,-00.000002700000,   5.12000,
,,,-00.000002600000,   5.12000,
,,,-00.000002500000,   5.04000,
,,,-00.000002400000,   5.20000,
,,,-00.000002300000,   5.20000,
,,,-00.000002200000,   5.20000,
,,,-00.000002100000,   5.12000,
,,,-00.000002000000,   5.12000,
,,,-00.000001900000,   5.12000,
,,,-00.000001800000,   5.04000,
,,,-00.000001700000,   5.12000,
,,,-00.000001600000,   5.12000,
,,,-00.000001500000,   5.12000,
,,,-00.000001400000,   5.12000,
,,,-00.000001300000,   5.12000,
,,,-00.000001200000,   5.20000,
,,,-00.000001100000,   5.12000,
,,,-00.000001000000,   5.04000,
,,,-00.000000900000,   5.12000,
,,,-00.000000800000,   5.20000,
,,,-00.000000700000,   5.20000,
,,,-00.000000600000,   5.12000,
,,,-00.000000500000,   5.12000,
,,,-00.000000400000,   5.04000,
,,,-00.000000300000,   5.12000,
,,,-00.000000200000,   5.12000,
,,,-00.000000100000,   5.12000,
,,,-00.000000000000,   5.04000,
,,,00.000000100000,   5.12000,
,,,00.000000200000,   5.12000,
,,,00.000000300000,   5.20000,
,,,00.000000400000,   5.20000,
,,,00.000000500000,   5.12000,
,,,00.000000600000,   1.36000,
,,,00.000000700000,  -4.24000,
,,,00.000000800000,  -4.72000,
,,,00.000000900000,  -4.72000,
,,,00.000001000000,  -4.72000,
,,,00.000001100000,  -4.80000,
,,,00.000001200000,  -4.72000,
,,,00.000001300000,  -4.80000,
,,,00.000001400000,  -4.64000,
,,,00.000001500000,  -4.80000,
,,,00.000001600000,  -4.80000,
,,,00.000001700000,  -4.72000,
,,,00.000001800000,  -4.80000,
,,,00.000001900000,  -4.80000,
,,,00.000002000000,  -4.80000,
,,,00.000002100000,  -4.80000,
,,,00.000002200000,  -4.88000,
,,,00.000002300000,  -4.96000,
,,,00.000002400000,  -4.96000,
,,,00.000002500000,  -4.88000,
,,,00.000002600000,  -4.88000,
,,,00.000002700000,  -4.96000,
,,,00.000002800000,  -4.88000,
,,,00.000002900000,  -4.88000,
,,,00.000003000000,  -4.88000,
,,,00.000003100000,  -4.96000,
,,,00.000003200000,  -4.96000,
,,,00.000003300000,  -5.04000,
,,,00.000003400000,  -4.96000,
,,,00.000003500000,  -4.96000,
,,,00.000003600000,  -5.04000,
,,,00.000003700000,  -5.04000,
,,,00.000003800000,  -4.96000,
,,,00.000003900000,  -4.96000,
,,,00.000004000000,  -4.96000,
,,,00.000004100000,  -5.04000,
,,,00.000004200000,  -4.88000,
,,,00.000004300000,  -5.04000,
,,,00.000004400000,  -5.04000,
,,,00.000004500000,  -4.96000,
,,,00.000004600000,  -5.04000,
,,,00.000004700000,  -4.96000,
,,,00.000004800000,  -4.96000,
,,,00.000004900000,  -4.96000,
,,,00.000005000000,  -4.96000,
,,,00.000005100000,  -4.96000,
,,,00.000005200000,  -4.80000,
,,,00.000005300000,  -4.88000,
,,,00.000005400000,  -4.96000,
,,,00.000005500000,  -4.88000,
,,,00.000005600000,  -4.88000,
,,,00.000005700000,  -4.88000,
,,,00.000005800000,  -4.96000,
,,,00.000005900000,  -4.80000,
,,,00.000006000000,  -4.88000,
,,,00.000006100000,  -4.88000,
,,,00.000006200000,  -4.80000,
,,,00.000006300000,  -5.12000,
,,,00.000006400000,  -4.88000,
,,,00.000006500000,  -4.88000,
,,,00.000006600000,  -4.88000,
,,,00.000006700000,  -4.80000,
,,,00.000006800000,  -4.88000,
,,,00.000006900000,  -4.88000,
,,,00.000007000000,  -4.80000,
,,,00.000007100000,  -4.96000,
,,,00.000007200000,  -4.96000,
,,,00.000007300000,  -5.04000,
,,,00.000007400000,  -4.96000,
,,,00.000007500000,  -5.04000,
,,,00.000007600000,  -5.04000,
,,,00.000007700000,  -5.04000,
,,,00.000007800000,  -5.12000,
,,,00.000007900000,  -5.04000,
,,,00.000008000000,  -5.12000,
,,,00.000008100000,  -5.12000,
,,,00.000008200000,  -5.04000,
,,,00.000008300000,  -5.04000,
,,,00.000008400000,  -5.20000,
,,,00.000008500000,  -5.12000,
,,,00.000008600000,  -5.20000,
,,,00.000008700000,  -5.12000,
,,,00.000008800000,  -5.12000,
,,,00.000008900000,  -5.12000,
,,,00.000009000000,  -5.12000,
,,,00.000009100000,  -5.12000,
,,,00.000009200000,  -5.20000,
,,,00.000009300000,  -5.04000,
,,,00.000009400000,  -5.04000,
,,,00.000009500000,  -5.12000,
,,,00.000009600000,  -5.12000,
,,,00.000009700000,  -5.04000,
,,,00.000009800000,  -5.04000,
,,,00.000009900000,  -5.04000,
,,,00.000010000000,  -5.04000,
,,,00.000010100000,  -5.04000,
,,,00.000010200000,  -5.04000,
,,,00.000010300000,  -5.04000,
,,,00.000010400000,  -4.88000,
,,,00.000010500000,  -4.88000,
,,,00.000010600000,  -5.12000,
,,,00.000010700000,  -4.96000,
,,,00.000010800000,  -4.96000,
,,,00.000010900000,  -4.96000,
,,,00.000011000000,  -4.96000,
,,,00.000011100000,  -4.88000,
,,,00.000011200000,  -4.80000,
,,,00.000011300000,  -4.88000,
,,,00.000011400000,  -4.96000,
,,,00.000011500000,  -4.88000,
,,,00.000011600000,  -4.96000,
,,,00.000011700000,  -4.96000,
,,,00.000011800000,  -4.80000,
,,,00.000011900000,  -4.96000,
,,,00.000012000000,  -4.96000,
,,,00.000012100000,  -4.96000,
,,,00.000012200000,  -4.96000,
,,,00.000012300000,  -4.96000,
,,,00.000012400000,  -4.96000,
,,,00.000012500000,  -4.88000,
,,,00.000012600000,  -4.96000,
,,,00.000012700000,  -5.04000,
,,,00.000012800000,  -4.96000,
,,,00.000012900000,  -4.88000,
,,,00.000013000000,  -5.04000,
,,,00.000013100000,  -5.04000,
,,,00.000013200000,  -5.04000,
,,,00.000013300000,  -4.96000,
,,,00.000013400000,  -4.96000,
,,,00.000013500000,  -5.04000,
,,,00.000013600000,  -5.12000,
,,,00.000013700000,  -5.04000,
,,,00.000013800000,  -5.12000,
,,,00.000013900000,  -5.12000,
,,,00.000014000000,  -5.04000,
,,,00.000014100000,  -5.04000,
,,,00.000014200000,  -5.12000,
,,,00.000014300000,  -5.20000,
,,,00.000014400000,  -5.12000,
,,,00.000014500000,  -5.04000,
,,,00.000014600000,  -5.12000,
,,,00.000014700000,  -5.04000,
,,,00.000014800000,  -5.04000,
,,,00.000014900000,  -5.04000,
,,,00.000015000000,  -5.12000,
,,,00.000015100000,  -4.96000,
,,,00.000015200000,  -5.04000,
,,,00.000015300000,  -4.96000,
,,,00.000015400000,  -4.96000,
,,,00.000015500000,  -4.96000,
,,,00.000015600000,  -4.96000,
,,,00.000015700000,  -4.96000,
,,,00.000015800000,  -4.96000,
,,,00.000015900000,  -4.96000,
,,,00.000016000000,  -5.04000,
,,,00.000016100000,  -5.04000,
,,,00.000016200000,  -4.96000,
,,,00.000016300000,  -4.96000,
,,,00.000016400000,  -4.96000,
,,,00.000016500000,  -4.88000,
,,,00.000016600000,  -4.96000,
,,,00.000016700000,  -4.96000,
,,,00.000016800000,  -4.96000,
,,,00.000016900000,  -5.04000,
,,,00.000017000000,  -5.04000,
,,,00.000017100000,  -4.96000,
,,,00.000017200000,  -5.04000,
,,,00.000017300000,  -5.12000,
,,,00.000017400000,  -5.04000,
,,,00.000017500000,  -5.04000,
,,,00.000017600000,  -5.04000,
,,,00.000017700000,  -5.04000,
,,,00.000017800000,  -5.04000,
,,,00.000017900000,  -5.12000,
,,,00.000018000000,  -5.04000,
,,,00.000018100000,  -5.04000,
,,,00.000018200000,  -5.04000,
,,,00.000018300000,  -5.20000,
,,,00.000018400000,  -5.04000,
,,,00.000018500000,  -5.12000,
,,,00.000018600000,  -5.12000,
,,,00.000018700000,  -5.04000,
,,,00.000018800000,  -5.04000,
,,,00.000018900000,  -5.04000,
,,,00.000019000000,  -5.12000,
,,,00.000019100000,  -5.20000,
,,,00.000019200000,  -5.04000,
,,,00.000019300000,  -5.12000,
,,,00.000019400000,  -5.20000,
,,,00.000019500000,  -5.04000,
,,,00.000019600000,  -5.04000,
,,,00.000019700000,  -5.04000,
,,,00.000019800000,  -5.12000,
,,,00.000019900000,  -5.12000,
,,,00.000020000000,  -5.04000,
,,,00.000020100000,  -5.04000,
,,,00.000020200000,  -5.04000,
,,,00.000020300000,  -4.96000,
,,,00.000020400000,  -5.04000,
,,,00.000020500000,  -4.96000,
,,,00.000020600000,  -4.96000,
,,,00.000020700000,  -5.04000,
,,,00.000020800000,  -4.96000,
,,,00.000020900000,  -5.04000,
,,,00.000021000000,  -4.88000,
,,,00.000021100000,  -4.96000,
,,,00.000021200000,  -4.96000,
,,,00.000021300000,  -4.88000,
,,,00.000021400000,  -4.96000,
,,,00.000021500000,  -4.96000,
,,,00.000021600000,  -4.96000,
,,,00.000021700000,  -4.96000,
,,,00.000021800000,  -4.96000,
,,,00.000021900000,  -4.96000,
,,,00.000022000000,  -4.96000,
,,,00.000022100000,  -5.04000,
,,,00.000022200000,  -4.88000,
,,,00.000022300000,  -5.04000,
,,,00.000022400000,  -4.96000,
,,,00.000022500000,  -5.04000,
,,,00.000022600000,  -5.04000,
,,,00.000022700000,  -5.04000,
,,,00.000022800000,  -4.96000,
,,,00.000022900000,  -5.12000,
,,,00.000023000000,  -5.12000,
,,,00.000023100000,  -5.12000,
,,,00.000023200000,  -5.04000,
,,,00.000023300000,  -5.04000,
,,,00.000023400000,  -5.12000,
,,,00.000023500000,  -5.04000,
,,,00.000023600000,  -5.12000,
,,,00.000023700000,  -5.12000,
,,,00.000023800000,  -5.20000,
,,,00.000023900000,  -5.04000,
,,,00.000024000000,  -4.96000,
,,,00.000024100000,  -5.04000,
,,,00.000024200000,  -5.12000,
,,,00.000024300000,  -5.12000,
,,,00.000024400000,  -5.12000,
,,,00.000024500000,  -5.04000,
,,,00.000024600000,  -5.20000,
,,,00.000024700000,  -5.04000,
,,,00.000024800000,  -5.12000,
,,,00.000024900000,  -4.96000,
,,,00.000025000000,  -5.12000,
,,,00.000025100000,  -5.12000,
,,,00.000025200000,  -5.04000,
,,,00.000025300000,  -4.96000,
,,,00.000025400000,  -5.04000,
,,,00.000025500000,  -4.96000,
,,,00.000025600000,  -4.96000,
,,,00.000025700000,  -5.04000,
,,,00.000025800000,  -5.04000,
,,,00.000025900000,  -4.96000,
,,,00.000026000000,  -4.96000,
,,,00.000026100000,  -4.96000,
,,,00.000026200000,  -4.88000,
,,,00.000026300000,  -4.96000,
,,,00.000026400000,  -4.96000,
,,,00.000026500000,  -4.88000,
,,,00.000026600000,  -4.88000,
,,,00.000026700000,  -4.96000,
,,,00.000026800000,  -4.96000,
,,,00.000026900000,  -4.96000,
,,,00.000027000000,  -4.88000,
,,,00.000027100000,  -5.04000,
,,,00.000027200000,  -5.04000,
,,,00.000027300000,  -4.96000,
,,,00.000027400000,  -5.04000,
,,,00.000027500000,  -4.96000,
,,,00.000027600000,  -5.04000,
,,,00.000027700000,  -4.96000,
,,,00.000027800000,  -5.04000,
,,,00.000027900000,  -5.04000,
,,,00.000028000000,  -5.04000,
,,,00.000028100000,  -5.12000,
,,,00.000028200000,  -5.12000,
,,,00.000028300000,  -5.12000,
,,,00.000028400000,  -5.12000,
,,,00.000028500000,  -5.20000,
,,,00.000028600000,  -5.20000,
,,,00.000028700000,  -5.28000,
,,,00.000028800000,  -5.20000,
,,,00.000028900000,  -5.20000,
,,,00.000029000000,  -5.12000,
,,,00.000029100000,  -5.12000,
,,,00.000029200000,  -5.12000,
,,,00.000029300000,  -5.12000,
,,,00.000029400000,  -5.12000,
,,,00.000029500000,  -5.12000,
,,,00.000029600000,  -5.12000,
,,,00.000029700000,  -5.20000,
,,,00.000029800000,  -5.12000,
,,,00.000029900000,  -5.12000,
,,,00.000030000000,  -5.12000,
,,,00.000030100000,  -5.04000,
,,,00.000030200000,  -5.04000,
,,,00.000030300000,  -5.12000,
,,,00.000030400000,  -5.04000,
,,,00.000030500000,  -4.96000,
,,,00.000030600000,  -4.96000,
,,,00.000030700000,  -4.96000,
,,,00.000030800000,  -5.12000,
,,,00.000030900000,  -4.96000,
,,,00.000031000000,  -4.96000,
,,,00.000031100000,  -4.96000,
,,,00.000031200000,  -4.96000,
,,,00.000031300000,  -4.96000,
,,,00.000031400000,  -4.96000,
,,,00.000031500000,  -4.88000,
,,,00.000031600000,  -4.88000,
,,,00.000031700000,  -4.88000,
,,,00.000031800000,  -4.88000,
,,,00.000031900000,  -4.80000,
,,,00.000032000000,  -4.88000,
,,,00.000032100000,  -4.88000,
,,,00.000032200000,  -4.96000,
,,,00.000032300000,  -4.96000,
,,,00.000032400000,  -4.96000,
,,,00.000032500000,  -4.96000,
,,,00.000032600000,  -4.96000,
,,,00.000032700000,  -4.88000,
,,,00.000032800000,  -4.96000,
,,,00.000032900000,  -5.04000,
,,,00.000033000000,  -5.04000,
,,,00.000033100000,  -5.12000,
,,,00.000033200000,  -5.12000,
,,,00.000033300000,  -5.12000,
,,,00.000033400000,  -5.12000,
,,,00.000033500000,  -5.20000,
,,,00.000033600000,  -5.04000,
,,,00.000033700000,  -5.12000,
,,,00.000033800000,  -5.04000,
,,,00.000033900000,  -5.04000,
,,,00.000034000000,  -5.04000,
,,,00.000034100000,  -5.12000,
,,,00.000034200000,  -5.12000,
,,,00.000034300000,  -5.12000,
,,,00.000034400000,  -5.04000,
,,,00.000034500000,  -5.12000,
,,,00.000034600000,  -5.04000,
,,,00.000034700000,  -5.04000,
,,,00.000034800000,  -5.12000,
,,,00.000034900000,  -5.12000,
,,,00.000035000000,  -5.12000,
,,,00.000035100000,  -4.96000,
,,,00.000035200000,  -5.04000,
,,,00.000035300000,  -5.04000,
,,,00.000035400000,  -4.96000,
,,,00.000035500000,  -4.96000,
,,,00.000035600000,  -5.04000,
,,,00.000035700000,  -4.96000,
,,,00.000035800000,  -5.04000,
,,,00.000035900000,  -5.04000,
,,,00.000036000000,  -5.04000,
,,,00.000036100000,  -5.04000,
,,,00.000036200000,  -4.88000,
,,,00.000036300000,  -4.96000,
,,,00.000036400000,  -4.96000,
,,,00.000036500000,  -4.96000,
,,,00.000036600000,  -4.88000,
,,,00.000036700000,  -4.96000,
,,,00.000036800000,  -5.04000,
,,,00.000036900000,  -5.04000,
,,,00.000037000000,  -5.04000,
,,,00.000037100000,  -4.96000,
,,,00.000037200000,  -4.96000,
,,,00.000037300000,  -5.12000,
,,,00.000037400000,  -5.04000,
,,,00.000037500000,  -5.04000,
,,,00.000037600000,  -5.04000,
,,,00.000037700000,  -5.12000,
,,,00.000037800000,  -4.96000,
,,,00.000037900000,  -5.04000,
,,,00.000038000000,  -5.04000,
,,,00.000038100000,  -5.20000,
,,,00.000038200000,  -5.04000,
,,,00.000038300000,  -5.04000,
,,,00.000038400000,  -5.12000,
,,,00.000038500000,  -5.12000,
,,,00.000038600000,  -5.12000,
,,,00.000038700000,  -5.04000,
,,,00.000038800000,  -5.20000,
,,,00.000038900000,  -5.12000,
,,,00.000039000000,  -5.04000,
,,,00.000039100000,  -5.12000,
,,,00.000039200000,  -5.20000,
,,,00.000039300000,  -5.04000,
,,,00.000039400000,  -5.12000,
,,,00.000039500000,  -5.12000,
,,,00.000039600000,  -5.12000,
,,,00.000039700000,  -5.12000,
,,,00.000039800000,  -5.12000,
,,,00.000039900000,  -5.04000,
,,,00.000040000000,  -5.12000,
,,,00.000040100000,  -4.96000,
,,,00.000040200000,  -5.04000,
,,,00.000040300000,  -5.12000,
,,,00.000040400000,  -5.04000,
,,,00.000040500000,  -5.04000,
,,,00.000040600000,  -5.04000,
,,,00.000040700000,  -5.04000,
,,,00.000040800000,  -4.96000,
,,,00.000040900000,  -5.04000,
,,,00.000041000000,  -4.96000,
,,,00.000041100000,  -4.96000,
,,,00.000041200000,  -4.96000,
,,,00.000041300000,  -5.04000,
,,,00.000041400000,  -5.04000,
,,,00.000041500000,  -4.96000,
,,,00.000041600000,  -4.96000,
,,,00.000041700000,  -4.96000,
,,,00.000041800000,  -4.88000,
,,,00.000041900000,  -5.04000,
,,,00.000042000000,  -4.96000,
,,,00.000042100000,  -4.88000,
,,,00.000042200000,  -4.88000,
,,,00.000042300000,  -4.88000,
,,,00.000042400000,  -5.04000,
,,,00.000042500000,  -4.96000,
,,,00.000042600000,  -4.96000,
,,,00.000042700000,  -5.04000,
,,,00.000042800000,  -5.04000,
,,,00.000042900000,  -4.96000,
,,,00.000043000000,  -5.04000,
,,,00.000043100000,  -5.04000,
,,,00.000043200000,  -5.04000,
,,,00.000043300000,  -5.12000,
,,,00.000043400000,  -5.04000,
,,,00.000043500000,  -5.12000,
,,,00.000043600000,  -5.04000,
,,,00.000043700000,  -4.96000,
,,,00.000043800000,  -5.04000,
,,,00.000043900000,  -5.12000,
,,,00.000044000000,  -5.12000,
,,,00.000044100000,  -5.20000,
,,,00.000044200000,  -5.12000,
,,,00.000044300000,  -5.12000,
,,,00.000044400000,  -5.12000,
,,,00.000044500000,  -5.04000,
,,,00.000044600000,  -5.04000,
,,,00.000044700000,  -5.20000,
,,,00.000044800000,  -5.12000,
,,,00.000044900000,  -5.12000,
,,,00.000045000000,  -5.12000,
,,,00.000045100000,  -5.12000,
,,,00.000045200000,  -5.04000,
,,,00.000045300000,  -5.04000,
,,,00.000045400000,  -5.12000,
,,,00.000045500000,  -5.04000,
,,,00.000045600000,  -5.12000,
,,,00.000045700000,  -5.04000,
,,,00.000045800000,  -4.96000,
,,,00.000045900000,  -4.96000,
,,,00.000046000000,  -4.96000,
,,,00.000046100000,  -4.96000,
,,,00.000046200000,  -4.96000,
,,,00.000046300000,  -4.96000,
,,,00.000046400000,  -4.96000,
,,,00.000046500000,  -4.96000,
,,,00.000046600000,  -4.80000,
,,,00.000046700000,  -4.96000,
,,,00.000046800000,  -5.04000,
,,,00.000046900000,  -4.96000,
,,,00.000047000000,  -4.96000,
,,,00.000047100000,  -4.96000,
,,,00.000047200000,  -4.96000,
,,,00.000047300000,  -4.96000,
,,,00.000047400000,  -5.04000,
,,,00.000047500000,  -4.88000,
,,,00.000047600000,  -4.96000,
,,,00.000047700000,  -5.04000,
,,,00.000047800000,  -5.04000,
,,,00.000047900000,  -5.04000,
,,,00.000048000000,  -5.04000,
,,,00.000048100000,  -5.04000,
,,,00.000048200000,  -5.12000,
,,,00.000048300000,  -5.12000,
,,,00.000048400000,  -5.12000,
,,,00.000048500000,  -5.04000,
,,,00.000048600000,  -5.12000,
,,,00.000048700000,  -5.12000,
,,,00.000048800000,  -5.20000,
,,,00.000048900000,  -5.12000,
,,,00.000049000000,  -5.12000,
,,,00.000049100000,  -5.20000,
,,,00.000049200000,  -5.12000,
,,,00.000049300000,  -5.20000,
,,,00.000049400000,  -5.12000,
,,,00.000049500000,  -5.20000,
,,,00.000049600000,  -5.20000,
,,,00.000049700000,  -5.20000,
,,,00.000049800000,  -5.12000,
,,,00.000049900000,  -5.12000,
,,,00.000050000000,  -5.04000,
,,,00.000050100000,  -5.04000,
,,,00.000050200000,  -5.20000,
,,,00.000050300000,  -5.12000,
,,,00.000050400000,  -5.04000,
,,,00.000050500000,  -5.04000,
,,,00.000050600000,  -5.04000,
,,,00.000050700000,  -4.96000,
,,,00.000050800000,  -5.04000,
,,,00.000050900000,  -4.88000,
,,,00.000051000000,  -4.96000,
,,,00.000051100000,  -4.88000,
,,,00.000051200000,  -4.96000,
,,,00.000051300000,  -5.04000,
,,,00.000051400000,  -4.88000,
,,,00.000051500000,  -4.96000,
,,,00.000051600000,  -4.96000,
,,,00.000051700000,  -4.88000,
,,,00.000051800000,  -4.88000,
,,,00.000051900000,  -4.88000,
,,,00.000052000000,  -4.88000,
,,,00.000052100000,  -4.88000,
,,,00.000052200000,  -4.96000,
,,,00.000052300000,  -4.88000,
,,,00.000052400000,  -4.96000,
,,,00.000052500000,  -4.88000,
,,,00.000052600000,  -4.88000,
,,,00.000052700000,  -4.96000,
,,,00.000052800000,  -4.96000,
,,,00.000052900000,  -5.04000,
,,,00.000053000000,  -4.96000,
,,,00.000053100000,  -5.04000,
,,,00.000053200000,  -5.04000,
,,,00.000053300000,  -5.04000,
,,,00.000053400000,  -5.04000,
,,,00.000053500000,  -5.12000,
,,,00.000053600000,  -5.12000,
,,,00.000053700000,  -5.04000,
,,,00.000053800000,  -5.04000,
,,,00.000053900000,  -5.12000,
,,,00.000054000000,  -5.20000,
,,,00.000054100000,  -5.12000,
,,,00.000054200000,  -5.12000,
,,,00.000054300000,  -5.12000,
,,,00.000054400000,  -5.04000,
,,,00.000054500000,  -5.04000,
,,,00.000054600000,  -5.12000,
,,,00.000054700000,  -5.04000,
,,,00.000054800000,  -5.04000,
,,,00.000054900000,  -5.12000,
,,,00.000055000000,  -5.04000,
,,,00.000055100000,  -5.04000,
,,,00.000055200000,  -4.96000,
,,,00.000055300000,  -5.04000,
,,,00.000055400000,  -5.04000,
,,,00.000055500000,  -4.96000,
,,,00.000055600000,  -5.04000,
,,,00.000055700000,  -5.04000,
,,,00.000055800000,  -4.96000,
,,,00.000055900000,  -4.96000,
,,,00.000056000000,  -5.04000,
,,,00.000056100000,  -4.96000,
,,,00.000056200000,  -4.96000,
,,,00.000056300000,  -4.96000,
,,,00.000056400000,  -4.96000,
,,,00.000056500000,  -5.04000,
,,,00.000056600000,  -4.96000,
,,,00.000056700000,  -4.96000,
,,,00.000056800000,  -4.96000,
,,,00.000056900000,  -5.20000,
,,,00.000057000000,  -4.88000,
,,,00.000057100000,  -4.96000,
,,,00.000057200000,  -4.96000,
,,,00.000057300000,  -4.96000,
,,,00.000057400000,  -4.88000,
,,,00.000057500000,  -5.04000,
,,,00.000057600000,  -4.96000,
,,,00.000057700000,  -5.04000,
,,,00.000057800000,  -5.04000,
,,,00.000057900000,  -5.12000,
,,,00.000058000000,  -5.20000,
,,,00.000058100000,  -5.12000,
