PHYS2114/lab3/data/ALL0005/F0005CH1.CSV

Record Length,2.500000e+03,,  -0.000024000000,  -0.40000,
Sample Interval,2.000000e-07,,  -0.000023800000,  -0.40000,
Trigger Point,1.200000000000e+02,,  -0.000023600000,  -0.40000,
,,,  -0.000023400000,  -0.40000,
,,,  -0.000023200000,  -0.40000,
,,,  -0.000023000000,  -0.40000,
Source,CH1,,  -0.000022800000,  -0.40000,
Vertical Units,V,,  -0.000022600000,  -0.40000,
Vertical Scale,1.000000e+01,,  -0.000022400000,  -0.40000,
Vertical Offset,0.000000e+00,,  -0.000022200000,  -0.40000,
Horizontal Units,s,,  -0.000022000000,  -0.40000,
Horizontal Scale,5.000000e-05,,  -0.000021800000,  -0.40000,
Pt Fmt,Y,,  -0.000021600000,  -0.40000,
Yzero,0.000000e+00,,  -0.000021400000,  -0.40000,
Probe Atten,1.000000e+01,,  -0.000021200000,  -0.40000,
Model Number,TBS1072B-EDU,,  -0.000021000000,  -0.40000,
Serial Number,C013793,,  -0.000020800000,  -0.40000,
Firmware Version,FV:v4.0,,  -0.000020600000,  -0.40000,
,,,-00.000020400000,  -0.40000,
,,,-00.000020200000,  -0.40000,
,,,-00.000020000000,  -0.40000,
,,,-00.000019800000,  -0.40000,
,,,-00.000019600000,  -0.40000,
,,,-00.000019400000,  -0.40000,
,,,-00.000019200000,  -0.40000,
,,,-00.000019000000,  -0.40000,
,,,-00.000018800000,  -0.40000,
,,,-00.000018600000,  -0.40000,
,,,-00.000018400000,  -0.40000,
,,,-00.000018200000,  -0.40000,
,,,-00.000018000000,  -0.40000,
,,,-00.000017800000,  -0.40000,
,,,-00.000017600000,  -0.40000,
,,,-00.000017400000,  -0.40000,
,,,-00.000017200000,  -0.40000,
,,,-00.000017000000,  -0.40000,
,,,-00.000016800000,  -0.40000,
,,,-00.000016600000,  -0.40000,
,,,-00.000016400000,  -0.40000,
,,,-00.000016200000,  -0.40000,
,,,-00.000016000000,  -0.40000,
,,,-00.000015800000,  -0.40000,
,,,-00.000015600000,  -0.40000,
,,,-00.000015400000,  -0.40000,
,,,-00.000015200000,  -0.40000,
,,,-00.000015000000,  -0.40000,
,,,-00.000014800000,  -0.40000,
,,,-00.000014600000,  -0.40000,
,,,-00.000014400000,  -0.40000,
,,,-00.000014200000,  -0.40000,
,,,-00.000014000000,  -0.40000,
,,,-00.000013800000,  -0.40000,
,,,-00.000013600000,  -0.40000,
,,,-00.000013400000,  -0.40000,
,,,-00.000013200000,  -0.40000,
,,,-00.000013000000,  -0.40000,
,,,-00.000012800000,  -0.40000,
,,,-00.000012600000,  -0.40000,
,,,-00.000012400000,  -0.40000,
,,,-00.000012200000,  -0.40000,
,,,-00.000012000000,  -0.40000,
,,,-00.000011800000,  -0.40000,
,,,-00.000011600000,  -0.40000,
,,,-00.000011400000,  -0.40000,
,,,-00.000011200000,  -0.40000,
,,,-00.000011000000,  -0.40000,
,,,-00.000010800000,  -0.40000,
,,,-00.000010600000,  -0.40000,
,,,-00.000010400000,  -0.40000,
,,,-00.000010200000,  -0.40000,
,,,-00.000010000000,  -0.40000,
,,,-00.000009800000,  -0.40000,
,,,-00.000009600000,  -0.40000,
,,,-00.000009400000,  -0.40000,
,,,-00.000009200000,  -0.40000,
,,,-00.000009000000,  -0.40000,
,,,-00.000008800000,  -0.40000,
,,,-00.000008600000,  -0.40000,
,,,-00.000008400000,  -0.40000,
,,,-00.000008200000,  -0.40000,
,,,-00.000008000000,  -0.40000,
,,,-00.000007800000,  -0.40000,
,,,-00.000007600000,  -0.40000,
,,,-00.000007400000,  -0.40000,
,,,-00.000007200000,  -0.40000,
,,,-00.000007000000,  -0.40000,
,,,-00.000006800000,  -0.40000,
,,,-00.000006600000,  -0.40000,
,,,-00.000006400000,  -0.40000,
,,,-00.000006200000,  -0.40000,
,,,-00.000006000000,  -0.80000,
,,,-00.000005800000,  -0.80000,
,,,-00.000005600000,  -0.80000,
,,,-00.000005400000,  -0.80000,
,,,-00.000005200000,  -0.80000,
,,,-00.000005000000,  -1.20000,
,,,-00.000004800000,  -2.00000,
,,,-00.000004600000,  -2.80000,
,,,-00.000004400000,  -3.60000,
,,,-00.000004200000,  -4.40000,
,,,-00.000004000000,  -5.60000,
,,,-00.000003800000,  -6.80000,
,,,-00.000003600000,  -8.00000,
,,,-00.000003400000,  -9.20000,
,,,-00.000003200000, -10.80000,
,,,-00.000003000000, -12.00000,
,,,-00.000002800000, -13.60000,
,,,-00.000002600000, -14.80000,
,,,-00.000002400000, -16.40000,
,,,-00.000002200000, -18.00000,
,,,-00.000002000000, -19.20000,
,,,-00.000001800000, -20.80000,
,,,-00.000001600000, -22.00000,
,,,-00.000001400000, -23.60000,
,,,-00.000001200000, -24.80000,
,,,-00.000001000000, -26.40000,
,,,-00.000000800000, -27.60000,
,,,-00.000000600000, -29.20000,
,,,-00.000000400000, -30.40000,
,,,-00.000000200000, -31.60000,
,,,-00.000000000000, -32.80000,
,,,00.000000200000, -33.60000,
,,,00.000000400000, -34.00000,
,,,00.000000600000, -33.20000,
,,,00.000000800000, -31.60000,
,,,00.000001000000, -29.60000,
,,,00.000001200000, -26.80000,
,,,00.000001400000, -24.00000,
,,,00.000001600000, -20.40000,
,,,00.000001800000, -16.80000,
,,,00.000002000000, -12.80000,
,,,00.000002200000,  -8.40000,
,,,00.000002400000,  -4.40000,
,,,00.000002600000,   0.00000,
,,,00.000002800000,   4.40000,
,,,00.000003000000,   8.80000,
,,,00.000003200000,  12.80000,
,,,00.000003400000,  16.80000,
,,,00.000003600000,  20.80000,
,,,00.000003800000,  24.40000,
,,,00.000004000000,  27.60000,
,,,00.000004200000,  30.40000,
,,,00.000004400000,  33.20000,
,,,00.000004600000,  35.60000,
,,,00.000004800000,  37.20000,
,,,00.000005000000,  38.80000,
,,,00.000005200000,  40.00000,
,,,00.000005400000,  40.80000,
,,,00.000005600000,  40.80000,
,,,00.000005800000,  40.80000,
,,,00.000006000000,  40.40000,
,,,00.000006200000,  39.60000,
,,,00.000006400000,  38.40000,
,,,00.000006600000,  36.40000,
,,,00.000006800000,  34.80000,
,,,00.000007000000,  32.40000,
,,,00.000007200000,  29.60000,
,,,00.000007400000,  26.80000,
,,,00.000007600000,  23.60000,
,,,00.000007800000,  20.00000,
,,,00.000008000000,  16.40000,
,,,00.000008200000,  12.80000,
,,,00.000008400000,   9.20000,
,,,00.000008600000,   5.20000,
,,,00.000008800000,   1.20000,
,,,00.000009000000,  -2.80000,
,,,00.000009200000,  -6.40000,
,,,00.000009400000, -10.00000,
,,,00.000009600000, -13.60000,
,,,00.000009800000, -17.20000,
,,,00.000010000000, -20.40000,
,,,00.000010200000, -23.20000,
,,,00.000010400000, -26.00000,
,,,00.000010600000, -28.80000,
,,,00.000010800000, -30.80000,
,,,00.000011000000, -32.80000,
,,,00.000011200000, -34.40000,
,,,00.000011400000, -35.20000,
,,,00.000011600000, -36.40000,
,,,00.000011800000, -36.80000,
,,,00.000012000000, -36.80000,
,,,00.000012200000, -36.40000,
,,,00.000012400000, -36.00000,
,,,00.000012600000, -34.80000,
,,,00.000012800000, -33.60000,
,,,00.000013000000, -32.00000,
,,,00.000013200000, -30.00000,
,,,00.000013400000, -28.00000,
,,,00.000013600000, -25.60000,
,,,00.000013800000, -22.80000,
,,,00.000014000000, -20.00000,
,,,00.000014200000, -17.20000,
,,,00.000014400000, -14.00000,
,,,00.000014600000, -10.80000,
,,,00.000014800000,  -7.20000,
,,,00.000015000000,  -4.00000,
,,,00.000015200000,  -0.40000,
,,,00.000015400000,   2.80000,
,,,00.000015600000,   6.00000,
,,,00.000015800000,   9.20000,
,,,00.000016000000,  12.40000,
,,,00.000016200000,  15.20000,
,,,00.000016400000,  18.00000,
,,,00.000016600000,  20.40000,
,,,00.000016800000,  22.80000,
,,,00.000017000000,  24.80000,
,,,00.000017200000,  26.40000,
,,,00.000017400000,  28.00000,
,,,00.000017600000,  29.20000,
,,,00.000017800000,  30.00000,
,,,00.000018000000,  30.80000,
,,,00.000018200000,  30.80000,
,,,00.000018400000,  30.80000,
,,,00.000018600000,  30.40000,
,,,00.000018800000,  29.60000,
,,,00.000019000000,  28.80000,
,,,00.000019200000,  27.60000,
,,,00.000019400000,  26.00000,
,,,00.000019600000,  24.40000,
,,,00.000019800000,  22.40000,
,,,00.000020000000,  20.00000,
,,,00.000020200000,  17.60000,
,,,00.000020400000,  15.20000,
,,,00.000020600000,  12.40000,
,,,00.000020800000,   9.60000,
,,,00.000021000000,   6.80000,
,,,00.000021200000,   4.00000,
,,,00.000021400000,   0.80000,
,,,00.000021600000,  -2.00000,
,,,00.000021800000,  -4.80000,
,,,00.000022000000,  -7.60000,
,,,00.000022200000, -10.40000,
,,,00.000022400000, -13.20000,
,,,00.000022600000, -15.60000,
,,,00.000022800000, -17.60000,
,,,00.000023000000, -20.00000,
,,,00.000023200000, -21.60000,
,,,00.000023400000, -23.20000,
,,,00.000023600000, -24.80000,
,,,00.000023800000, -26.00000,
,,,00.000024000000, -26.80000,
,,,00.000024200000, -27.60000,
,,,00.000024400000, -27.60000,
,,,00.000024600000, -28.00000,
,,,00.000024800000, -27.60000,
,,,00.000025000000, -27.20000,
,,,00.000025200000, -26.40000,
,,,00.000025400000, -25.60000,
,,,00.000025600000, -24.40000,
,,,00.000025800000, -22.80000,
,,,00.000026000000, -21.20000,
,,,00.000026200000, -19.60000,
,,,00.000026400000, -17.60000,
,,,00.000026600000, -15.20000,
,,,00.000026800000, -13.20000,
,,,00.000027000000, -10.80000,
,,,00.000027200000,  -8.00000,
,,,00.000027400000,  -5.60000,
,,,00.000027600000,  -3.20000,
,,,00.000027800000,  -0.40000,
,,,00.000028000000,   2.00000,
,,,00.000028200000,   4.40000,
,,,00.000028400000,   6.80000,
,,,00.000028600000,   9.20000,
,,,00.000028800000,  11.20000,
,,,00.000029000000,  13.20000,
,,,00.000029200000,  15.20000,
,,,00.000029400000,  16.80000,
,,,00.000029600000,  18.40000,
,,,00.000029800000,  20.00000,
,,,00.000030000000,  20.80000,
,,,00.000030200000,  22.00000,
,,,00.000030400000,  22.40000,
,,,00.000030600000,  22.80000,
,,,00.000030800000,  23.20000,
,,,00.000031000000,  23.20000,
,,,00.000031200000,  22.80000,
,,,00.000031400000,  22.40000,
,,,00.000031600000,  21.60000,
,,,00.000031800000,  20.80000,
,,,00.000032000000,  19.60000,
,,,00.000032200000,  18.00000,
,,,00.000032400000,  16.80000,
,,,00.000032600000,  14.80000,
,,,00.000032800000,  13.20000,
,,,00.000033000000,  11.20000,
,,,00.000033200000,   9.20000,
,,,00.000033400000,   7.20000,
,,,00.000033600000,   4.80000,
,,,00.000033800000,   2.80000,
,,,00.000034000000,   0.40000,
,,,00.000034200000,  -1.60000,
,,,00.000034400000,  -4.00000,
,,,00.000034600000,  -6.00000,
,,,00.000034800000,  -8.00000,
,,,00.000035000000, -10.00000,
,,,00.000035200000, -12.00000,
,,,00.000035400000, -13.60000,
,,,00.000035600000, -15.20000,
,,,00.000035800000, -16.40000,
,,,00.000036000000, -17.60000,
,,,00.000036200000, -18.80000,
,,,00.000036400000, -19.60000,
,,,00.000036600000, -20.40000,
,,,00.000036800000, -20.80000,
,,,00.000037000000, -21.20000,
,,,00.000037200000, -21.20000,
,,,00.000037400000, -20.80000,
,,,00.000037600000, -20.80000,
,,,00.000037800000, -20.40000,
,,,00.000038000000, -19.60000,
,,,00.000038200000, -18.40000,
,,,00.000038400000, -17.60000,
,,,00.000038600000, -16.00000,
,,,00.000038800000, -14.80000,
,,,00.000039000000, -13.20000,
,,,00.000039200000, -11.60000,
,,,00.000039400000, -10.00000,
,,,00.000039600000,  -8.40000,
,,,00.000039800000,  -6.40000,
,,,00.000040000000,  -4.40000,
,,,00.000040200000,  -2.40000,
,,,00.000040400000,  -0.80000,
,,,00.000040600000,   1.20000,
,,,00.000040800000,   3.20000,
,,,00.000041000000,   4.80000,
,,,00.000041200000,   6.80000,
,,,00.000041400000,   8.40000,
,,,00.000041600000,  10.00000,
,,,00.000041800000,  11.20000,
,,,00.000042000000,  12.80000,
,,,00.000042200000,  14.00000,
,,,00.000042400000,  14.80000,
,,,00.000042600000,  15.60000,
,,,00.000042800000,  16.40000,
,,,00.000043000000,  16.80000,
,,,00.000043200000,  17.20000,
,,,00.000043400000,  17.20000,
,,,00.000043600000,  17.20000,
,,,00.000043800000,  17.20000,
,,,00.000044000000,  16.80000,
,,,00.000044200000,  16.00000,
,,,00.000044400000,  15.60000,
,,,00.000044600000,  14.40000,
,,,00.000044800000,  13.60000,
,,,00.000045000000,  12.40000,
,,,00.000045200000,  11.20000,
,,,00.000045400000,  10.00000,
,,,00.000045600000,   8.40000,
,,,00.000045800000,   6.80000,
,,,00.000046000000,   5.20000,
,,,00.000046200000,   3.60000,
,,,00.000046400000,   2.00000,
,,,00.000046600000,   0.40000,
,,,00.000046800000,  -1.20000,
,,,00.000047000000,  -2.80000,
,,,00.000047200000,  -4.40000,
,,,00.000047400000,  -6.40000,
,,,00.000047600000,  -7.60000,
,,,00.000047800000,  -9.20000,
,,,00.000048000000, -10.40000,
,,,00.000048200000, -11.60000,
,,,00.000048400000, -12.40000,
,,,00.000048600000, -13.60000,
,,,00.000048800000, -14.40000,
,,,00.000049000000, -14.80000,
,,,00.000049200000, -15.60000,
,,,00.000049400000, -16.00000,
,,,00.000049600000, -16.00000,
,,,00.000049800000, -16.00000,
,,,00.000050000000, -16.00000,
,,,00.000050200000, -15.60000,
,,,00.000050400000, -15.20000,
,,,00.000050600000, -14.80000,
,,,00.000050800000, -14.00000,
,,,00.000051000000, -13.20000,
,,,00.000051200000, -12.40000,
,,,00.000051400000, -11.20000,
,,,00.000051600000, -10.40000,
,,,00.000051800000,  -9.20000,
,,,00.000052000000,  -7.60000,
,,,00.000052200000,  -6.40000,
,,,00.000052400000,  -4.80000,
,,,00.000052600000,  -3.60000,
,,,00.000052800000,  -2.00000,
,,,00.000053000000,  -0.40000,
,,,00.000053200000,   0.80000,
,,,00.000053400000,   2.40000,
,,,00.000053600000,   3.60000,
,,,00.000053800000,   4.80000,
,,,00.000054000000,   6.00000,
,,,00.000054200000,   7.20000,
,,,00.000054400000,   8.40000,
,,,00.000054600000,   9.20000,
,,,00.000054800000,  10.40000,
,,,00.000055000000,  11.20000,
,,,00.000055200000,  11.60000,
,,,00.000055400000,  12.00000,
,,,00.000055600000,  12.40000,
,,,00.000055800000,  12.80000,
,,,00.000056000000,  12.80000,
,,,00.000056200000,  12.80000,
,,,00.000056400000,  12.80000,
,,,00.000056600000,  12.40000,
,,,00.000056800000,  12.00000,
,,,00.000057000000,  11.60000,
,,,00.000057200000,  10.80000,
,,,00.000057400000,  10.00000,
,,,00.000057600000,   9.20000,
,,,00.000057800000,   8.40000,
,,,00.000058000000,   7.20000,
,,,00.000058200000,   6.40000,
,,,00.000058400000,   5.20000,
,,,00.000058600000,   4.00000,
,,,00.000058800000,   2.80000,
,,,00.000059000000,   1.20000,
,,,00.000059200000,   0.00000,
,,,00.000059400000,  -1.20000,
,,,00.000059600000,  -2.40000,
,,,00.000059800000,  -3.60000,
,,,00.000060000000,  -4.80000,
,,,00.000060200000,  -6.00000,
,,,00.000060400000,  -6.80000,
,,,00.000060600000,  -8.00000,
,,,00.000060800000,  -8.80000,
,,,00.000061000000,  -9.60000,
,,,00.000061200000, -10.40000,
,,,00.000061400000, -10.80000,
,,,00.000061600000, -11.60000,
,,,00.000061800000, -12.00000,
,,,00.000062000000, -12.00000,
,,,00.000062200000, -12.40000,
,,,00.000062400000, -12.40000,
,,,00.000062600000, -12.40000,
,,,00.000062800000, -12.00000,
,,,00.000063000000, -11.60000,
,,,00.000063200000, -11.20000,
,,,00.000063400000, -10.80000,
,,,00.000063600000, -10.40000,
,,,00.000063800000,  -9.60000,
,,,00.000064000000,  -8.80000,
,,,00.000064200000,  -8.00000,
,,,00.000064400000,  -6.80000,
,,,00.000064600000,  -6.00000,
,,,00.000064800000,  -4.80000,
,,,00.000065000000,  -4.00000,
,,,00.000065200000,  -2.80000,
,,,00.000065400000,  -1.60000,
,,,00.000065600000,  -0.40000,
,,,00.000065800000,   0.40000,
,,,00.000066000000,   1.60000,
,,,00.000066200000,   2.40000,
,,,00.000066400000,   3.60000,
,,,00.000066600000,   4.40000,
,,,00.000066800000,   5.20000,
,,,00.000067000000,   6.00000,
,,,00.000067200000,   6.80000,
,,,00.000067400000,   7.60000,
,,,00.000067600000,   8.00000,
,,,00.000067800000,   8.80000,
,,,00.000068000000,   9.20000,
,,,00.000068200000,   9.20000,
,,,00.000068400000,   9.60000,
,,,00.000068600000,   9.60000,
,,,00.000068800000,   9.60000,
,,,00.000069000000,   9.60000,
,,,00.000069200000,   9.20000,
,,,00.000069400000,   8.80000,
,,,00.000069600000,   8.40000,
,,,00.000069800000,   8.00000,
,,,00.000070000000,   7.60000,
,,,00.000070200000,   6.80000,
,,,00.000070400000,   6.00000,
,,,00.000070600000,   5.60000,
,,,00.000070800000,   4.80000,
,,,00.000071000000,   3.60000,
,,,00.000071200000,   2.80000,
,,,00.000071400000,   2.00000,
,,,00.000071600000,   0.80000,
,,,00.000071800000,   0.00000,
,,,00.000072000000,  -0.80000,
,,,00.000072200000,  -2.00000,
,,,00.000072400000,  -2.80000,
,,,00.000072600000,  -3.60000,
,,,00.000072800000,  -4.40000,
,,,00.000073000000,  -5.20000,
,,,00.000073200000,  -6.00000,
,,,00.000073400000,  -6.80000,
,,,00.000073600000,  -7.20000,
,,,00.000073800000,  -8.00000,
,,,00.000074000000,  -8.40000,
,,,00.000074200000,  -8.80000,
,,,00.000074400000,  -9.20000,
,,,00.000074600000,  -9.20000,
,,,00.000074800000,  -9.20000,
,,,00.000075000000,  -9.60000,
,,,00.000075200000,  -9.20000,
,,,00.000075400000,  -9.20000,
,,,00.000075600000,  -8.80000,
,,,00.000075800000,  -8.80000,
,,,00.000076000000,  -8.40000,
,,,00.000076200000,  -8.00000,
,,,00.000076400000,  -7.20000,
,,,00.000076600000,  -6.80000,
,,,00.000076800000,  -6.00000,
,,,00.000077000000,  -5.60000,
,,,00.000077200000,  -4.80000,
,,,00.000077400000,  -4.00000,
,,,00.000077600000,  -3.20000,
,,,00.000077800000,  -2.40000,
,,,00.000078000000,  -1.60000,
,,,00.000078200000,  -0.80000,
,,,00.000078400000,   0.00000,
,,,00.000078600000,   1.20000,
,,,00.000078800000,   2.00000,
,,,00.000079000000,   2.40000,
,,,00.000079200000,   3.20000,
,,,00.000079400000,   4.00000,
,,,00.000079600000,   4.40000,
,,,00.000079800000,   5.20000,
,,,00.000080000000,   5.60000,
,,,00.000080200000,   6.00000,
,,,00.000080400000,   6.40000,
,,,00.000080600000,   6.80000,
,,,00.000080800000,   6.80000,
,,,00.000081000000,   7.20000,
,,,00.000081200000,   7.20000,
,,,00.000081400000,   7.20000,
,,,00.000081600000,   7.20000,
,,,00.000081800000,   6.80000,
,,,00.000082000000,   6.80000,
,,,00.000082200000,   6.40000,
,,,00.000082400000,   6.00000,
,,,00.000082600000,   5.60000,
,,,00.000082800000,   5.20000,
,,,00.000083000000,   4.40000,
,,,00.000083200000,   4.00000,
,,,00.000083400000,   3.20000,
,,,00.000083600000,   2.80000,
,,,00.000083800000,   2.00000,
,,,00.000084000000,   1.20000,
,,,00.000084200000,   0.40000,
,,,00.000084400000,   0.00000,
,,,00.000084600000,  -0.80000,
,,,00.000084800000,  -1.60000,
,,,00.000085000000,  -2.40000,
,,,00.000085200000,  -2.80000,
,,,00.000085400000,  -3.60000,
,,,00.000085600000,  -4.00000,
,,,00.000085800000,  -4.80000,
,,,00.000086000000,  -5.20000,
,,,00.000086200000,  -5.60000,
,,,00.000086400000,  -6.00000,
,,,00.000086600000,  -6.40000,
,,,00.000086800000,  -6.80000,
,,,00.000087000000,  -6.80000,
,,,00.000087200000,  -7.20000,
,,,00.000087400000,  -7.20000,
,,,00.000087600000,  -7.20000,
,,,00.000087800000,  -7.20000,
,,,00.000088000000,  -7.20000,
,,,00.000088200000,  -6.80000,
,,,00.000088400000,  -6.80000,
,,,00.000088600000,  -6.40000,
,,,00.000088800000,  -6.00000,
,,,00.000089000000,  -5.60000,
,,,00.000089200000,  -5.20000,
,,,00.000089400000,  -4.80000,
,,,00.000089600000,  -4.00000,
,,,00.000089800000,  -3.60000,
,,,00.000090000000,  -3.20000,
,,,00.000090200000,  -2.40000,
,,,00.000090400000,  -2.00000,
,,,00.000090600000,  -1.20000,
,,,00.000090800000,  -0.40000,
,,,00.000091000000,   0.00000,
,,,00.000091200000,   0.80000,
,,,00.000091400000,   1.20000,
,,,00.000091600000,   2.00000,
,,,00.000091800000,   2.40000,
,,,00.000092000000,   2.80000,
,,,00.000092200000,   3.20000,
,,,00.000092400000,   3.60000,
,,,00.000092600000,   4.00000,
,,,00.000092800000,   4.40000,
,,,00.000093000000,   4.80000,
,,,00.000093200000,   4.80000,
,,,00.000093400000,   5.20000,
,,,00.000093600000,   5.20000,
,,,00.000093800000,   5.20000,
,,,00.000094000000,   5.20000,
,,,00.000094200000,   5.20000,
,,,00.000094400000,   5.20000,
,,,00.000094600000,   4.80000,
,,,00.000094800000,   4.80000,
,,,00.000095000000,   4.40000,
,,,00.000095200000,   4.00000,
,,,00.000095400000,   3.60000,
,,,00.000095600000,   3.20000,
,,,00.000095800000,   2.80000,
,,,00.000096000000,   2.40000,
,,,00.000096200000,   2.00000,
,,,00.000096400000,   1.60000,
,,,00.000096600000,   0.80000,
,,,00.000096800000,   0.40000,
,,,00.000097000000,  -0.40000,
,,,00.000097200000,  -0.80000,
,,,00.000097400000,  -1.20000,
,,,00.000097600000,  -1.60000,
,,,00.000097800000,  -2.40000,
,,,00.000098000000,  -2.80000,
,,,00.000098200000,  -3.20000,
,,,00.000098400000,  -3.60000,
,,,00.000098600000,  -4.00000,
,,,00.000098800000,  -4.40000,
,,,00.000099000000,  -4.80000,
,,,00.000099200000,  -4.80000,
,,,00.000099400000,  -5.20000,
,,,00.000099600000,  -5.20000,
,,,00.000099800000,  -5.60000,
,,,00.000100000000,  -5.60000,
,,,00.000100200000,  -5.60000,
,,,00.000100400000,  -5.60000,
,,,00.000100600000,  -5.60000,
,,,00.000100800000,  -5.20000,
,,,00.000101000000,  -5.20000,
,,,00.000101200000,  -4.80000,
,,,00.000101400000,  -4.80000,
,,,00.000101600000,  -4.40000,
,,,00.000101800000,  -4.00000,
